('/home/vaageesh/Documents/Python-GUI/Questions/build/main/PYZ-00.pyz',
 [('os', '/usr/lib/python3.9/os.py', 'PYMODULE'),
  ('subprocess', '/usr/lib/python3.9/subprocess.py', 'PYMODULE'),
  ('selectors', '/usr/lib/python3.9/selectors.py', 'PYMODULE'),
  ('contextlib', '/usr/lib/python3.9/contextlib.py', 'PYMODULE'),
  ('threading', '/usr/lib/python3.9/threading.py', 'PYMODULE'),
  ('_threading_local', '/usr/lib/python3.9/_threading_local.py', 'PYMODULE'),
  ('signal', '/usr/lib/python3.9/signal.py', 'PYMODULE'),
  ('_strptime', '/usr/lib/python3.9/_strptime.py', 'PYMODULE'),
  ('datetime', '/usr/lib/python3.9/datetime.py', 'PYMODULE'),
  ('calendar', '/usr/lib/python3.9/calendar.py', 'PYMODULE'),
  ('argparse', '/usr/lib/python3.9/argparse.py', 'PYMODULE'),
  ('textwrap', '/usr/lib/python3.9/textwrap.py', 'PYMODULE'),
  ('shutil', '/usr/lib/python3.9/shutil.py', 'PYMODULE'),
  ('zipfile', '/usr/lib/python3.9/zipfile.py', 'PYMODULE'),
  ('py_compile', '/usr/lib/python3.9/py_compile.py', 'PYMODULE'),
  ('importlib.machinery',
   '/usr/lib/python3.9/importlib/machinery.py',
   'PYMODULE'),
  ('importlib', '/usr/lib/python3.9/importlib/__init__.py', 'PYMODULE'),
  ('importlib.abc', '/usr/lib/python3.9/importlib/abc.py', 'PYMODULE'),
  ('typing', '/usr/lib/python3.9/typing.py', 'PYMODULE'),
  ('importlib._bootstrap',
   '/usr/lib/python3.9/importlib/_bootstrap.py',
   'PYMODULE'),
  ('importlib._bootstrap_external',
   '/usr/lib/python3.9/importlib/_bootstrap_external.py',
   'PYMODULE'),
  ('importlib.metadata',
   '/usr/lib/python3.9/importlib/metadata.py',
   'PYMODULE'),
  ('configparser', '/usr/lib/python3.9/configparser.py', 'PYMODULE'),
  ('pathlib', '/usr/lib/python3.9/pathlib.py', 'PYMODULE'),
  ('urllib.parse', '/usr/lib/python3.9/urllib/parse.py', 'PYMODULE'),
  ('urllib', '/usr/lib/python3.9/urllib/__init__.py', 'PYMODULE'),
  ('email', '/usr/lib/python3.9/email/__init__.py', 'PYMODULE'),
  ('email.parser', '/usr/lib/python3.9/email/parser.py', 'PYMODULE'),
  ('email._policybase', '/usr/lib/python3.9/email/_policybase.py', 'PYMODULE'),
  ('email.utils', '/usr/lib/python3.9/email/utils.py', 'PYMODULE'),
  ('email._parseaddr', '/usr/lib/python3.9/email/_parseaddr.py', 'PYMODULE'),
  ('socket', '/usr/lib/python3.9/socket.py', 'PYMODULE'),
  ('email.feedparser', '/usr/lib/python3.9/email/feedparser.py', 'PYMODULE'),
  ('email.message', '/usr/lib/python3.9/email/message.py', 'PYMODULE'),
  ('email.policy', '/usr/lib/python3.9/email/policy.py', 'PYMODULE'),
  ('email.contentmanager',
   '/usr/lib/python3.9/email/contentmanager.py',
   'PYMODULE'),
  ('email.quoprimime', '/usr/lib/python3.9/email/quoprimime.py', 'PYMODULE'),
  ('string', '/usr/lib/python3.9/string.py', 'PYMODULE'),
  ('email.headerregistry',
   '/usr/lib/python3.9/email/headerregistry.py',
   'PYMODULE'),
  ('email.iterators', '/usr/lib/python3.9/email/iterators.py', 'PYMODULE'),
  ('email.generator', '/usr/lib/python3.9/email/generator.py', 'PYMODULE'),
  ('email._encoded_words',
   '/usr/lib/python3.9/email/_encoded_words.py',
   'PYMODULE'),
  ('base64', '/usr/lib/python3.9/base64.py', 'PYMODULE'),
  ('getopt', '/usr/lib/python3.9/getopt.py', 'PYMODULE'),
  ('quopri', '/usr/lib/python3.9/quopri.py', 'PYMODULE'),
  ('uu', '/usr/lib/python3.9/uu.py', 'PYMODULE'),
  ('optparse', '/usr/lib/python3.9/optparse.py', 'PYMODULE'),
  ('email._header_value_parser',
   '/usr/lib/python3.9/email/_header_value_parser.py',
   'PYMODULE'),
  ('email.header', '/usr/lib/python3.9/email/header.py', 'PYMODULE'),
  ('email.base64mime', '/usr/lib/python3.9/email/base64mime.py', 'PYMODULE'),
  ('email.charset', '/usr/lib/python3.9/email/charset.py', 'PYMODULE'),
  ('email.encoders', '/usr/lib/python3.9/email/encoders.py', 'PYMODULE'),
  ('email.errors', '/usr/lib/python3.9/email/errors.py', 'PYMODULE'),
  ('csv', '/usr/lib/python3.9/csv.py', 'PYMODULE'),
  ('tokenize', '/usr/lib/python3.9/tokenize.py', 'PYMODULE'),
  ('token', '/usr/lib/python3.9/token.py', 'PYMODULE'),
  ('struct', '/usr/lib/python3.9/struct.py', 'PYMODULE'),
  ('importlib.util', '/usr/lib/python3.9/importlib/util.py', 'PYMODULE'),
  ('tarfile', '/usr/lib/python3.9/tarfile.py', 'PYMODULE'),
  ('gzip', '/usr/lib/python3.9/gzip.py', 'PYMODULE'),
  ('_compression', '/usr/lib/python3.9/_compression.py', 'PYMODULE'),
  ('lzma', '/usr/lib/python3.9/lzma.py', 'PYMODULE'),
  ('bz2', '/usr/lib/python3.9/bz2.py', 'PYMODULE'),
  ('fnmatch', '/usr/lib/python3.9/fnmatch.py', 'PYMODULE'),
  ('copy', '/usr/lib/python3.9/copy.py', 'PYMODULE'),
  ('gettext', '/usr/lib/python3.9/gettext.py', 'PYMODULE'),
  ('ntpath', '/usr/lib/python3.9/ntpath.py', 'PYMODULE'),
  ('genericpath', '/usr/lib/python3.9/genericpath.py', 'PYMODULE'),
  ('posixpath', '/usr/lib/python3.9/posixpath.py', 'PYMODULE'),
  ('stat', '/usr/lib/python3.9/stat.py', 'PYMODULE'),
  ('pkg_resources',
   '/home/vaageesh/.pyenv/versions/venv/lib/python3.9/site-packages/pkg_resources/__init__.py',
   'PYMODULE'),
  ('pkg_resources._vendor',
   '/home/vaageesh/.pyenv/versions/venv/lib/python3.9/site-packages/pkg_resources/_vendor/__init__.py',
   'PYMODULE'),
  ('pkg_resources._vendor.packaging._typing',
   '/home/vaageesh/.pyenv/versions/venv/lib/python3.9/site-packages/pkg_resources/_vendor/packaging/_typing.py',
   'PYMODULE'),
  ('pkg_resources._vendor.packaging.requirements',
   '/home/vaageesh/.pyenv/versions/venv/lib/python3.9/site-packages/pkg_resources/_vendor/packaging/requirements.py',
   'PYMODULE'),
  ('__future__', '/usr/lib/python3.9/__future__.py', 'PYMODULE'),
  ('pkg_resources._vendor.packaging.utils',
   '/home/vaageesh/.pyenv/versions/venv/lib/python3.9/site-packages/pkg_resources/_vendor/packaging/utils.py',
   'PYMODULE'),
  ('pkg_resources._vendor.packaging.__about__',
   '/home/vaageesh/.pyenv/versions/venv/lib/python3.9/site-packages/pkg_resources/_vendor/packaging/__about__.py',
   'PYMODULE'),
  ('pkg_resources._vendor.packaging.version',
   '/home/vaageesh/.pyenv/versions/venv/lib/python3.9/site-packages/pkg_resources/_vendor/packaging/version.py',
   'PYMODULE'),
  ('pkg_resources._vendor.packaging._compat',
   '/home/vaageesh/.pyenv/versions/venv/lib/python3.9/site-packages/pkg_resources/_vendor/packaging/_compat.py',
   'PYMODULE'),
  ('pkg_resources._vendor.packaging',
   '/home/vaageesh/.pyenv/versions/venv/lib/python3.9/site-packages/pkg_resources/_vendor/packaging/__init__.py',
   'PYMODULE'),
  ('pkg_resources._vendor.appdirs',
   '/home/vaageesh/.pyenv/versions/venv/lib/python3.9/site-packages/pkg_resources/_vendor/appdirs.py',
   'PYMODULE'),
  ('ctypes', '/usr/lib/python3.9/ctypes/__init__.py', 'PYMODULE'),
  ('ctypes._endian', '/usr/lib/python3.9/ctypes/_endian.py', 'PYMODULE'),
  ('pkg_resources._vendor.packaging.specifiers',
   '/home/vaageesh/.pyenv/versions/venv/lib/python3.9/site-packages/pkg_resources/_vendor/packaging/specifiers.py',
   'PYMODULE'),
  ('pkg_resources._vendor.packaging._structures',
   '/home/vaageesh/.pyenv/versions/venv/lib/python3.9/site-packages/pkg_resources/_vendor/packaging/_structures.py',
   'PYMODULE'),
  ('pkg_resources._vendor.packaging.tags',
   '/home/vaageesh/.pyenv/versions/venv/lib/python3.9/site-packages/pkg_resources/_vendor/packaging/tags.py',
   'PYMODULE'),
  ('logging', '/usr/lib/python3.9/logging/__init__.py', 'PYMODULE'),
  ('pickle', '/usr/lib/python3.9/pickle.py', 'PYMODULE'),
  ('pprint', '/usr/lib/python3.9/pprint.py', 'PYMODULE'),
  ('doctest', '/usr/lib/python3.9/doctest.py', 'PYMODULE'),
  ('unittest', '/usr/lib/python3.9/unittest/__init__.py', 'PYMODULE'),
  ('unittest.async_case',
   '/usr/lib/python3.9/unittest/async_case.py',
   'PYMODULE'),
  ('asyncio', '/usr/lib/python3.9/asyncio/__init__.py', 'PYMODULE'),
  ('asyncio.unix_events',
   '/usr/lib/python3.9/asyncio/unix_events.py',
   'PYMODULE'),
  ('asyncio.log', '/usr/lib/python3.9/asyncio/log.py', 'PYMODULE'),
  ('asyncio.windows_events',
   '/usr/lib/python3.9/asyncio/windows_events.py',
   'PYMODULE'),
  ('asyncio.windows_utils',
   '/usr/lib/python3.9/asyncio/windows_utils.py',
   'PYMODULE'),
  ('asyncio.selector_events',
   '/usr/lib/python3.9/asyncio/selector_events.py',
   'PYMODULE'),
  ('ssl', '/usr/lib/python3.9/ssl.py', 'PYMODULE'),
  ('asyncio.proactor_events',
   '/usr/lib/python3.9/asyncio/proactor_events.py',
   'PYMODULE'),
  ('asyncio.base_subprocess',
   '/usr/lib/python3.9/asyncio/base_subprocess.py',
   'PYMODULE'),
  ('asyncio.threads', '/usr/lib/python3.9/asyncio/threads.py', 'PYMODULE'),
  ('contextvars', '/usr/lib/python3.9/contextvars.py', 'PYMODULE'),
  ('asyncio.subprocess',
   '/usr/lib/python3.9/asyncio/subprocess.py',
   'PYMODULE'),
  ('asyncio.streams', '/usr/lib/python3.9/asyncio/streams.py', 'PYMODULE'),
  ('asyncio.queues', '/usr/lib/python3.9/asyncio/queues.py', 'PYMODULE'),
  ('asyncio.runners', '/usr/lib/python3.9/asyncio/runners.py', 'PYMODULE'),
  ('asyncio.events', '/usr/lib/python3.9/asyncio/events.py', 'PYMODULE'),
  ('asyncio.base_events',
   '/usr/lib/python3.9/asyncio/base_events.py',
   'PYMODULE'),
  ('concurrent.futures',
   '/usr/lib/python3.9/concurrent/futures/__init__.py',
   'PYMODULE'),
  ('concurrent.futures.thread',
   '/usr/lib/python3.9/concurrent/futures/thread.py',
   'PYMODULE'),
  ('queue', '/usr/lib/python3.9/queue.py', 'PYMODULE'),
  ('concurrent.futures.process',
   '/usr/lib/python3.9/concurrent/futures/process.py',
   'PYMODULE'),
  ('multiprocessing.queues',
   '/usr/lib/python3.9/multiprocessing/queues.py',
   'PYMODULE'),
  ('multiprocessing.synchronize',
   '/usr/lib/python3.9/multiprocessing/synchronize.py',
   'PYMODULE'),
  ('multiprocessing.heap',
   '/usr/lib/python3.9/multiprocessing/heap.py',
   'PYMODULE'),
  ('bisect', '/usr/lib/python3.9/bisect.py', 'PYMODULE'),
  ('multiprocessing.resource_tracker',
   '/usr/lib/python3.9/multiprocessing/resource_tracker.py',
   'PYMODULE'),
  ('multiprocessing.spawn',
   '/usr/lib/python3.9/multiprocessing/spawn.py',
   'PYMODULE'),
  ('runpy', '/usr/lib/python3.9/runpy.py', 'PYMODULE'),
  ('multiprocessing.process',
   '/usr/lib/python3.9/multiprocessing/process.py',
   'PYMODULE'),
  ('multiprocessing.util',
   '/usr/lib/python3.9/multiprocessing/util.py',
   'PYMODULE'),
  ('multiprocessing.forkserver',
   '/usr/lib/python3.9/multiprocessing/forkserver.py',
   'PYMODULE'),
  ('multiprocessing.context',
   '/usr/lib/python3.9/multiprocessing/context.py',
   'PYMODULE'),
  ('multiprocessing.popen_spawn_win32',
   '/usr/lib/python3.9/multiprocessing/popen_spawn_win32.py',
   'PYMODULE'),
  ('multiprocessing.popen_forkserver',
   '/usr/lib/python3.9/multiprocessing/popen_forkserver.py',
   'PYMODULE'),
  ('multiprocessing.popen_spawn_posix',
   '/usr/lib/python3.9/multiprocessing/popen_spawn_posix.py',
   'PYMODULE'),
  ('multiprocessing.popen_fork',
   '/usr/lib/python3.9/multiprocessing/popen_fork.py',
   'PYMODULE'),
  ('multiprocessing.sharedctypes',
   '/usr/lib/python3.9/multiprocessing/sharedctypes.py',
   'PYMODULE'),
  ('multiprocessing.pool',
   '/usr/lib/python3.9/multiprocessing/pool.py',
   'PYMODULE'),
  ('multiprocessing.dummy',
   '/usr/lib/python3.9/multiprocessing/dummy/__init__.py',
   'PYMODULE'),
  ('multiprocessing.dummy.connection',
   '/usr/lib/python3.9/multiprocessing/dummy/connection.py',
   'PYMODULE'),
  ('multiprocessing.managers',
   '/usr/lib/python3.9/multiprocessing/managers.py',
   'PYMODULE'),
  ('multiprocessing.shared_memory',
   '/usr/lib/python3.9/multiprocessing/shared_memory.py',
   'PYMODULE'),
  ('secrets', '/usr/lib/python3.9/secrets.py', 'PYMODULE'),
  ('hmac', '/usr/lib/python3.9/hmac.py', 'PYMODULE'),
  ('hashlib', '/usr/lib/python3.9/hashlib.py', 'PYMODULE'),
  ('multiprocessing.reduction',
   '/usr/lib/python3.9/multiprocessing/reduction.py',
   'PYMODULE'),
  ('multiprocessing.resource_sharer',
   '/usr/lib/python3.9/multiprocessing/resource_sharer.py',
   'PYMODULE'),
  ('multiprocessing.connection',
   '/usr/lib/python3.9/multiprocessing/connection.py',
   'PYMODULE'),
  ('xmlrpc.client', '/usr/lib/python3.9/xmlrpc/client.py', 'PYMODULE'),
  ('xmlrpc', '/usr/lib/python3.9/xmlrpc/__init__.py', 'PYMODULE'),
  ('xml.parsers.expat', '/usr/lib/python3.9/xml/parsers/expat.py', 'PYMODULE'),
  ('xml.parsers', '/usr/lib/python3.9/xml/parsers/__init__.py', 'PYMODULE'),
  ('xml', '/usr/lib/python3.9/xml/__init__.py', 'PYMODULE'),
  ('xml.sax.expatreader',
   '/usr/lib/python3.9/xml/sax/expatreader.py',
   'PYMODULE'),
  ('xml.sax.saxutils', '/usr/lib/python3.9/xml/sax/saxutils.py', 'PYMODULE'),
  ('xml.sax', '/usr/lib/python3.9/xml/sax/__init__.py', 'PYMODULE'),
  ('xml.sax.handler', '/usr/lib/python3.9/xml/sax/handler.py', 'PYMODULE'),
  ('xml.sax._exceptions',
   '/usr/lib/python3.9/xml/sax/_exceptions.py',
   'PYMODULE'),
  ('xml.sax.xmlreader', '/usr/lib/python3.9/xml/sax/xmlreader.py', 'PYMODULE'),
  ('http.client', '/usr/lib/python3.9/http/client.py', 'PYMODULE'),
  ('http', '/usr/lib/python3.9/http/__init__.py', 'PYMODULE'),
  ('decimal', '/usr/lib/python3.9/decimal.py', 'PYMODULE'),
  ('_pydecimal', '/usr/lib/python3.9/_pydecimal.py', 'PYMODULE'),
  ('numbers', '/usr/lib/python3.9/numbers.py', 'PYMODULE'),
  ('multiprocessing',
   '/usr/lib/python3.9/multiprocessing/__init__.py',
   'PYMODULE'),
  ('concurrent.futures._base',
   '/usr/lib/python3.9/concurrent/futures/_base.py',
   'PYMODULE'),
  ('concurrent', '/usr/lib/python3.9/concurrent/__init__.py', 'PYMODULE'),
  ('asyncio.trsock', '/usr/lib/python3.9/asyncio/trsock.py', 'PYMODULE'),
  ('asyncio.staggered', '/usr/lib/python3.9/asyncio/staggered.py', 'PYMODULE'),
  ('asyncio.tasks', '/usr/lib/python3.9/asyncio/tasks.py', 'PYMODULE'),
  ('asyncio.base_tasks',
   '/usr/lib/python3.9/asyncio/base_tasks.py',
   'PYMODULE'),
  ('asyncio.locks', '/usr/lib/python3.9/asyncio/locks.py', 'PYMODULE'),
  ('asyncio.sslproto', '/usr/lib/python3.9/asyncio/sslproto.py', 'PYMODULE'),
  ('asyncio.transports',
   '/usr/lib/python3.9/asyncio/transports.py',
   'PYMODULE'),
  ('asyncio.protocols', '/usr/lib/python3.9/asyncio/protocols.py', 'PYMODULE'),
  ('asyncio.futures', '/usr/lib/python3.9/asyncio/futures.py', 'PYMODULE'),
  ('asyncio.exceptions',
   '/usr/lib/python3.9/asyncio/exceptions.py',
   'PYMODULE'),
  ('asyncio.coroutines',
   '/usr/lib/python3.9/asyncio/coroutines.py',
   'PYMODULE'),
  ('asyncio.base_futures',
   '/usr/lib/python3.9/asyncio/base_futures.py',
   'PYMODULE'),
  ('asyncio.format_helpers',
   '/usr/lib/python3.9/asyncio/format_helpers.py',
   'PYMODULE'),
  ('asyncio.constants', '/usr/lib/python3.9/asyncio/constants.py', 'PYMODULE'),
  ('unittest.signals', '/usr/lib/python3.9/unittest/signals.py', 'PYMODULE'),
  ('unittest.main', '/usr/lib/python3.9/unittest/main.py', 'PYMODULE'),
  ('unittest.runner', '/usr/lib/python3.9/unittest/runner.py', 'PYMODULE'),
  ('unittest.loader', '/usr/lib/python3.9/unittest/loader.py', 'PYMODULE'),
  ('unittest.suite', '/usr/lib/python3.9/unittest/suite.py', 'PYMODULE'),
  ('unittest.case', '/usr/lib/python3.9/unittest/case.py', 'PYMODULE'),
  ('unittest._log', '/usr/lib/python3.9/unittest/_log.py', 'PYMODULE'),
  ('unittest.result', '/usr/lib/python3.9/unittest/result.py', 'PYMODULE'),
  ('unittest.util', '/usr/lib/python3.9/unittest/util.py', 'PYMODULE'),
  ('pdb', '/usr/lib/python3.9/pdb.py', 'PYMODULE'),
  ('pydoc', '/usr/lib/python3.9/pydoc.py', 'PYMODULE'),
  ('webbrowser', '/usr/lib/python3.9/webbrowser.py', 'PYMODULE'),
  ('http.server', '/usr/lib/python3.9/http/server.py', 'PYMODULE'),
  ('socketserver', '/usr/lib/python3.9/socketserver.py', 'PYMODULE'),
  ('mimetypes', '/usr/lib/python3.9/mimetypes.py', 'PYMODULE'),
  ('html', '/usr/lib/python3.9/html/__init__.py', 'PYMODULE'),
  ('html.entities', '/usr/lib/python3.9/html/entities.py', 'PYMODULE'),
  ('pydoc_data.topics', '/usr/lib/python3.9/pydoc_data/topics.py', 'PYMODULE'),
  ('pydoc_data', '/usr/lib/python3.9/pydoc_data/__init__.py', 'PYMODULE'),
  ('tty', '/usr/lib/python3.9/tty.py', 'PYMODULE'),
  ('shlex', '/usr/lib/python3.9/shlex.py', 'PYMODULE'),
  ('glob', '/usr/lib/python3.9/glob.py', 'PYMODULE'),
  ('code', '/usr/lib/python3.9/code.py', 'PYMODULE'),
  ('codeop', '/usr/lib/python3.9/codeop.py', 'PYMODULE'),
  ('dis', '/usr/lib/python3.9/dis.py', 'PYMODULE'),
  ('opcode', '/usr/lib/python3.9/opcode.py', 'PYMODULE'),
  ('bdb', '/usr/lib/python3.9/bdb.py', 'PYMODULE'),
  ('cmd', '/usr/lib/python3.9/cmd.py', 'PYMODULE'),
  ('difflib', '/usr/lib/python3.9/difflib.py', 'PYMODULE'),
  ('_compat_pickle', '/usr/lib/python3.9/_compat_pickle.py', 'PYMODULE'),
  ('distutils.util', '/usr/lib/python3.9/distutils/util.py', 'PYMODULE'),
  ('distutils.filelist',
   '/usr/lib/python3.9/distutils/filelist.py',
   'PYMODULE'),
  ('distutils.debug', '/usr/lib/python3.9/distutils/debug.py', 'PYMODULE'),
  ('distutils.file_util',
   '/usr/lib/python3.9/distutils/file_util.py',
   'PYMODULE'),
  ('distutils.dir_util',
   '/usr/lib/python3.9/distutils/dir_util.py',
   'PYMODULE'),
  ('distutils.sysconfig',
   '/usr/lib/python3.9/distutils/sysconfig.py',
   'PYMODULE'),
  ('distutils.text_file',
   '/usr/lib/python3.9/distutils/text_file.py',
   'PYMODULE'),
  ('_osx_support', '/usr/lib/python3.9/_osx_support.py', 'PYMODULE'),
  ('_aix_support', '/usr/lib/python3.9/_aix_support.py', 'PYMODULE'),
  ('_bootsubprocess', '/usr/lib/python3.9/_bootsubprocess.py', 'PYMODULE'),
  ('distutils.log', '/usr/lib/python3.9/distutils/log.py', 'PYMODULE'),
  ('distutils', '/usr/lib/python3.9/distutils/__init__.py', 'PYMODULE'),
  ('distutils.archive_util',
   '/usr/lib/python3.9/distutils/archive_util.py',
   'PYMODULE'),
  ('distutils.ccompiler',
   '/usr/lib/python3.9/distutils/ccompiler.py',
   'PYMODULE'),
  ('distutils.fancy_getopt',
   '/usr/lib/python3.9/distutils/fancy_getopt.py',
   'PYMODULE'),
  ('distutils.spawn', '/usr/lib/python3.9/distutils/spawn.py', 'PYMODULE'),
  ('distutils.dep_util',
   '/usr/lib/python3.9/distutils/dep_util.py',
   'PYMODULE'),
  ('distutils.errors', '/usr/lib/python3.9/distutils/errors.py', 'PYMODULE'),
  ('pkg_resources._vendor.packaging.markers',
   '/home/vaageesh/.pyenv/versions/venv/lib/python3.9/site-packages/pkg_resources/_vendor/packaging/markers.py',
   'PYMODULE'),
  ('pkg_resources._vendor.pyparsing',
   '/home/vaageesh/.pyenv/versions/venv/lib/python3.9/site-packages/pkg_resources/_vendor/pyparsing.py',
   'PYMODULE'),
  ('uuid', '/usr/lib/python3.9/uuid.py', 'PYMODULE'),
  ('sysconfig', '/usr/lib/python3.9/sysconfig.py', 'PYMODULE'),
  ('_sysconfigdata__x86_64-linux-gnu',
   '/usr/lib/python3.9/_sysconfigdata__x86_64-linux-gnu.py',
   'PYMODULE'),
  ('pkg_resources.extern',
   '/home/vaageesh/.pyenv/versions/venv/lib/python3.9/site-packages/pkg_resources/extern/__init__.py',
   'PYMODULE'),
  ('imp', '/usr/lib/python3.9/imp.py', 'PYMODULE'),
  ('inspect', '/usr/lib/python3.9/inspect.py', 'PYMODULE'),
  ('ast', '/usr/lib/python3.9/ast.py', 'PYMODULE'),
  ('tempfile', '/usr/lib/python3.9/tempfile.py', 'PYMODULE'),
  ('plistlib', '/usr/lib/python3.9/plistlib.py', 'PYMODULE'),
  ('platform', '/usr/lib/python3.9/platform.py', 'PYMODULE'),
  ('pkgutil', '/usr/lib/python3.9/pkgutil.py', 'PYMODULE'),
  ('zipimport', '/usr/lib/python3.9/zipimport.py', 'PYMODULE'),
  ('stringprep', '/usr/lib/python3.9/stringprep.py', 'PYMODULE'),
  ('_py_abc', '/usr/lib/python3.9/_py_abc.py', 'PYMODULE'),
  ('tracemalloc', '/usr/lib/python3.9/tracemalloc.py', 'PYMODULE'),
  ('random', '/usr/lib/python3.9/random.py', 'PYMODULE'),
  ('statistics', '/usr/lib/python3.9/statistics.py', 'PYMODULE'),
  ('fractions', '/usr/lib/python3.9/fractions.py', 'PYMODULE'),
  ('json', '/usr/lib/python3.9/json/__init__.py', 'PYMODULE'),
  ('json.encoder', '/usr/lib/python3.9/json/encoder.py', 'PYMODULE'),
  ('json.decoder', '/usr/lib/python3.9/json/decoder.py', 'PYMODULE'),
  ('json.scanner', '/usr/lib/python3.9/json/scanner.py', 'PYMODULE'),
  ('urllib.request', '/usr/lib/python3.9/urllib/request.py', 'PYMODULE'),
  ('getpass', '/usr/lib/python3.9/getpass.py', 'PYMODULE'),
  ('nturl2path', '/usr/lib/python3.9/nturl2path.py', 'PYMODULE'),
  ('ftplib', '/usr/lib/python3.9/ftplib.py', 'PYMODULE'),
  ('netrc', '/usr/lib/python3.9/netrc.py', 'PYMODULE'),
  ('http.cookiejar', '/usr/lib/python3.9/http/cookiejar.py', 'PYMODULE'),
  ('urllib.response', '/usr/lib/python3.9/urllib/response.py', 'PYMODULE'),
  ('urllib.error', '/usr/lib/python3.9/urllib/error.py', 'PYMODULE'),
  ('pandas',
   '/home/vaageesh/.pyenv/versions/venv/lib/python3.9/site-packages/pandas/__init__.py',
   'PYMODULE'),
  ('pandas._libs.window',
   '/home/vaageesh/.pyenv/versions/venv/lib/python3.9/site-packages/pandas/_libs/window/__init__.py',
   'PYMODULE'),
  ('pandas._libs.tslibs',
   '/home/vaageesh/.pyenv/versions/venv/lib/python3.9/site-packages/pandas/_libs/tslibs/__init__.py',
   'PYMODULE'),
  ('numpy',
   '/home/vaageesh/.pyenv/versions/venv/lib/python3.9/site-packages/numpy/__init__.py',
   'PYMODULE'),
  ('numpy._pytesttester',
   '/home/vaageesh/.pyenv/versions/venv/lib/python3.9/site-packages/numpy/_pytesttester.py',
   'PYMODULE'),
  ('numpy.distutils.cpuinfo',
   '/home/vaageesh/.pyenv/versions/venv/lib/python3.9/site-packages/numpy/distutils/cpuinfo.py',
   'PYMODULE'),
  ('numpy.distutils',
   '/home/vaageesh/.pyenv/versions/venv/lib/python3.9/site-packages/numpy/distutils/__init__.py',
   'PYMODULE'),
  ('numpy.distutils.fcompiler',
   '/home/vaageesh/.pyenv/versions/venv/lib/python3.9/site-packages/numpy/distutils/fcompiler/__init__.py',
   'PYMODULE'),
  ('numpy.distutils.command.config_compiler',
   '/home/vaageesh/.pyenv/versions/venv/lib/python3.9/site-packages/numpy/distutils/command/config_compiler.py',
   'PYMODULE'),
  ('numpy.distutils.command',
   '/home/vaageesh/.pyenv/versions/venv/lib/python3.9/site-packages/numpy/distutils/command/__init__.py',
   'PYMODULE'),
  ('numpy.distutils.command.egg_info',
   '/home/vaageesh/.pyenv/versions/venv/lib/python3.9/site-packages/numpy/distutils/command/egg_info.py',
   'PYMODULE'),
  ('setuptools.command.egg_info',
   '/home/vaageesh/.pyenv/versions/venv/lib/python3.9/site-packages/setuptools/command/egg_info.py',
   'PYMODULE'),
  ('setuptools.extern',
   '/home/vaageesh/.pyenv/versions/venv/lib/python3.9/site-packages/setuptools/extern/__init__.py',
   'PYMODULE'),
  ('setuptools.glob',
   '/home/vaageesh/.pyenv/versions/venv/lib/python3.9/site-packages/setuptools/glob.py',
   'PYMODULE'),
  ('setuptools.unicode_utils',
   '/home/vaageesh/.pyenv/versions/venv/lib/python3.9/site-packages/setuptools/unicode_utils.py',
   'PYMODULE'),
  ('setuptools.command.bdist_egg',
   '/home/vaageesh/.pyenv/versions/venv/lib/python3.9/site-packages/setuptools/command/bdist_egg.py',
   'PYMODULE'),
  ('setuptools.extension',
   '/home/vaageesh/.pyenv/versions/venv/lib/python3.9/site-packages/setuptools/extension.py',
   'PYMODULE'),
  ('setuptools.monkey',
   '/home/vaageesh/.pyenv/versions/venv/lib/python3.9/site-packages/setuptools/monkey.py',
   'PYMODULE'),
  ('distutils.extension',
   '/usr/lib/python3.9/distutils/extension.py',
   'PYMODULE'),
  ('setuptools.command',
   '/home/vaageesh/.pyenv/versions/venv/lib/python3.9/site-packages/setuptools/command/__init__.py',
   'PYMODULE'),
  ('setuptools.command.install_scripts',
   '/home/vaageesh/.pyenv/versions/venv/lib/python3.9/site-packages/setuptools/command/install_scripts.py',
   'PYMODULE'),
  ('setuptools.command.easy_install',
   '/home/vaageesh/.pyenv/versions/venv/lib/python3.9/site-packages/setuptools/command/easy_install.py',
   'PYMODULE'),
  ('setuptools.wheel',
   '/home/vaageesh/.pyenv/versions/venv/lib/python3.9/site-packages/setuptools/wheel.py',
   'PYMODULE'),
  ('setuptools.package_index',
   '/home/vaageesh/.pyenv/versions/venv/lib/python3.9/site-packages/setuptools/package_index.py',
   'PYMODULE'),
  ('setuptools.ssl_support',
   '/home/vaageesh/.pyenv/versions/venv/lib/python3.9/site-packages/setuptools/ssl_support.py',
   'PYMODULE'),
  ('setuptools.archive_util',
   '/home/vaageesh/.pyenv/versions/venv/lib/python3.9/site-packages/setuptools/archive_util.py',
   'PYMODULE'),
  ('setuptools.sandbox',
   '/home/vaageesh/.pyenv/versions/venv/lib/python3.9/site-packages/setuptools/sandbox.py',
   'PYMODULE'),
  ('site',
   '/home/vaageesh/.pyenv/versions/venv/lib/python3.9/site-packages/PyInstaller/fake-modules/site.py',
   'PYMODULE'),
  ('distutils.command.build_scripts',
   '/usr/lib/python3.9/distutils/command/build_scripts.py',
   'PYMODULE'),
  ('distutils.command',
   '/usr/lib/python3.9/distutils/command/__init__.py',
   'PYMODULE'),
  ('distutils.command.install',
   '/usr/lib/python3.9/distutils/command/install.py',
   'PYMODULE'),
  ('distutils.command.install_scripts',
   '/usr/lib/python3.9/distutils/command/install_scripts.py',
   'PYMODULE'),
  ('distutils.command.bdist',
   '/usr/lib/python3.9/distutils/command/bdist.py',
   'PYMODULE'),
  ('setuptools.command.setopt',
   '/home/vaageesh/.pyenv/versions/venv/lib/python3.9/site-packages/setuptools/command/setopt.py',
   'PYMODULE'),
  ('setuptools.command.sdist',
   '/home/vaageesh/.pyenv/versions/venv/lib/python3.9/site-packages/setuptools/command/sdist.py',
   'PYMODULE'),
  ('setuptools.command.py36compat',
   '/home/vaageesh/.pyenv/versions/venv/lib/python3.9/site-packages/setuptools/command/py36compat.py',
   'PYMODULE'),
  ('distutils.command.sdist',
   '/usr/lib/python3.9/distutils/command/sdist.py',
   'PYMODULE'),
  ('setuptools',
   '/home/vaageesh/.pyenv/versions/venv/lib/python3.9/site-packages/setuptools/__init__.py',
   'PYMODULE'),
  ('setuptools._vendor.packaging._typing',
   '/home/vaageesh/.pyenv/versions/venv/lib/python3.9/site-packages/setuptools/_vendor/packaging/_typing.py',
   'PYMODULE'),
  ('setuptools._vendor',
   '/home/vaageesh/.pyenv/versions/venv/lib/python3.9/site-packages/setuptools/_vendor/__init__.py',
   'PYMODULE'),
  ('setuptools._vendor.packaging',
   '/home/vaageesh/.pyenv/versions/venv/lib/python3.9/site-packages/setuptools/_vendor/packaging/__init__.py',
   'PYMODULE'),
  ('setuptools._vendor.ordered_set',
   '/home/vaageesh/.pyenv/versions/venv/lib/python3.9/site-packages/setuptools/_vendor/ordered_set.py',
   'PYMODULE'),
  ('setuptools._vendor.pyparsing',
   '/home/vaageesh/.pyenv/versions/venv/lib/python3.9/site-packages/setuptools/_vendor/pyparsing.py',
   'PYMODULE'),
  ('setuptools._vendor.packaging.__about__',
   '/home/vaageesh/.pyenv/versions/venv/lib/python3.9/site-packages/setuptools/_vendor/packaging/__about__.py',
   'PYMODULE'),
  ('setuptools._vendor.packaging._compat',
   '/home/vaageesh/.pyenv/versions/venv/lib/python3.9/site-packages/setuptools/_vendor/packaging/_compat.py',
   'PYMODULE'),
  ('setuptools._vendor.packaging.utils',
   '/home/vaageesh/.pyenv/versions/venv/lib/python3.9/site-packages/setuptools/_vendor/packaging/utils.py',
   'PYMODULE'),
  ('setuptools._vendor.packaging._structures',
   '/home/vaageesh/.pyenv/versions/venv/lib/python3.9/site-packages/setuptools/_vendor/packaging/_structures.py',
   'PYMODULE'),
  ('setuptools._vendor.packaging.requirements',
   '/home/vaageesh/.pyenv/versions/venv/lib/python3.9/site-packages/setuptools/_vendor/packaging/requirements.py',
   'PYMODULE'),
  ('setuptools._vendor.packaging.markers',
   '/home/vaageesh/.pyenv/versions/venv/lib/python3.9/site-packages/setuptools/_vendor/packaging/markers.py',
   'PYMODULE'),
  ('setuptools._vendor.packaging.tags',
   '/home/vaageesh/.pyenv/versions/venv/lib/python3.9/site-packages/setuptools/_vendor/packaging/tags.py',
   'PYMODULE'),
  ('setuptools._vendor.packaging.version',
   '/home/vaageesh/.pyenv/versions/venv/lib/python3.9/site-packages/setuptools/_vendor/packaging/version.py',
   'PYMODULE'),
  ('setuptools._vendor.packaging.specifiers',
   '/home/vaageesh/.pyenv/versions/venv/lib/python3.9/site-packages/setuptools/_vendor/packaging/specifiers.py',
   'PYMODULE'),
  ('setuptools.msvc',
   '/home/vaageesh/.pyenv/versions/venv/lib/python3.9/site-packages/setuptools/msvc.py',
   'PYMODULE'),
  ('distutils.msvc9compiler',
   '/usr/lib/python3.9/distutils/msvc9compiler.py',
   'PYMODULE'),
  ('distutils.command.build_ext',
   '/usr/lib/python3.9/distutils/command/build_ext.py',
   'PYMODULE'),
  ('distutils._msvccompiler',
   '/usr/lib/python3.9/distutils/_msvccompiler.py',
   'PYMODULE'),
  ('setuptools.namespaces',
   '/home/vaageesh/.pyenv/versions/venv/lib/python3.9/site-packages/setuptools/namespaces.py',
   'PYMODULE'),
  ('setuptools.depends',
   '/home/vaageesh/.pyenv/versions/venv/lib/python3.9/site-packages/setuptools/depends.py',
   'PYMODULE'),
  ('setuptools._imp',
   '/home/vaageesh/.pyenv/versions/venv/lib/python3.9/site-packages/setuptools/_imp.py',
   'PYMODULE'),
  ('setuptools.py34compat',
   '/home/vaageesh/.pyenv/versions/venv/lib/python3.9/site-packages/setuptools/py34compat.py',
   'PYMODULE'),
  ('distutils.version', '/usr/lib/python3.9/distutils/version.py', 'PYMODULE'),
  ('setuptools.dist',
   '/home/vaageesh/.pyenv/versions/venv/lib/python3.9/site-packages/setuptools/dist.py',
   'PYMODULE'),
  ('setuptools.installer',
   '/home/vaageesh/.pyenv/versions/venv/lib/python3.9/site-packages/setuptools/installer.py',
   'PYMODULE'),
  ('setuptools.config',
   '/home/vaageesh/.pyenv/versions/venv/lib/python3.9/site-packages/setuptools/config.py',
   'PYMODULE'),
  ('distutils.cmd', '/usr/lib/python3.9/distutils/cmd.py', 'PYMODULE'),
  ('setuptools.windows_support',
   '/home/vaageesh/.pyenv/versions/venv/lib/python3.9/site-packages/setuptools/windows_support.py',
   'PYMODULE'),
  ('setuptools.version',
   '/home/vaageesh/.pyenv/versions/venv/lib/python3.9/site-packages/setuptools/version.py',
   'PYMODULE'),
  ('setuptools._deprecation_warning',
   '/home/vaageesh/.pyenv/versions/venv/lib/python3.9/site-packages/setuptools/_deprecation_warning.py',
   'PYMODULE'),
  ('_distutils_hack.override',
   '/home/vaageesh/.pyenv/versions/venv/lib/python3.9/site-packages/_distutils_hack/override.py',
   'PYMODULE'),
  ('_distutils_hack',
   '/home/vaageesh/.pyenv/versions/venv/lib/python3.9/site-packages/_distutils_hack/__init__.py',
   'PYMODULE'),
  ('numpy.distutils.command.develop',
   '/home/vaageesh/.pyenv/versions/venv/lib/python3.9/site-packages/numpy/distutils/command/develop.py',
   'PYMODULE'),
  ('setuptools.command.develop',
   '/home/vaageesh/.pyenv/versions/venv/lib/python3.9/site-packages/setuptools/command/develop.py',
   'PYMODULE'),
  ('numpy.distutils.command.install_clib',
   '/home/vaageesh/.pyenv/versions/venv/lib/python3.9/site-packages/numpy/distutils/command/install_clib.py',
   'PYMODULE'),
  ('numpy.distutils.command.bdist_rpm',
   '/home/vaageesh/.pyenv/versions/venv/lib/python3.9/site-packages/numpy/distutils/command/bdist_rpm.py',
   'PYMODULE'),
  ('distutils.command.bdist_rpm',
   '/usr/lib/python3.9/distutils/command/bdist_rpm.py',
   'PYMODULE'),
  ('setuptools.command.bdist_rpm',
   '/home/vaageesh/.pyenv/versions/venv/lib/python3.9/site-packages/setuptools/command/bdist_rpm.py',
   'PYMODULE'),
  ('numpy.distutils.command.install',
   '/home/vaageesh/.pyenv/versions/venv/lib/python3.9/site-packages/numpy/distutils/command/install.py',
   'PYMODULE'),
  ('setuptools.command.install',
   '/home/vaageesh/.pyenv/versions/venv/lib/python3.9/site-packages/setuptools/command/install.py',
   'PYMODULE'),
  ('numpy.distutils.command.install_headers',
   '/home/vaageesh/.pyenv/versions/venv/lib/python3.9/site-packages/numpy/distutils/command/install_headers.py',
   'PYMODULE'),
  ('distutils.command.install_headers',
   '/usr/lib/python3.9/distutils/command/install_headers.py',
   'PYMODULE'),
  ('numpy.distutils.command.install_data',
   '/home/vaageesh/.pyenv/versions/venv/lib/python3.9/site-packages/numpy/distutils/command/install_data.py',
   'PYMODULE'),
  ('distutils.command.install_data',
   '/usr/lib/python3.9/distutils/command/install_data.py',
   'PYMODULE'),
  ('numpy.distutils.command.sdist',
   '/home/vaageesh/.pyenv/versions/venv/lib/python3.9/site-packages/numpy/distutils/command/sdist.py',
   'PYMODULE'),
  ('numpy.distutils.command.build_scripts',
   '/home/vaageesh/.pyenv/versions/venv/lib/python3.9/site-packages/numpy/distutils/command/build_scripts.py',
   'PYMODULE'),
  ('numpy.distutils.command.build_clib',
   '/home/vaageesh/.pyenv/versions/venv/lib/python3.9/site-packages/numpy/distutils/command/build_clib.py',
   'PYMODULE'),
  ('numpy.distutils.ccompiler_opt',
   '/home/vaageesh/.pyenv/versions/venv/lib/python3.9/site-packages/numpy/distutils/ccompiler_opt.py',
   'PYMODULE'),
  ('distutils.command.build_clib',
   '/usr/lib/python3.9/distutils/command/build_clib.py',
   'PYMODULE'),
  ('numpy.distutils.command.build_ext',
   '/home/vaageesh/.pyenv/versions/venv/lib/python3.9/site-packages/numpy/distutils/command/build_ext.py',
   'PYMODULE'),
  ('numpy.distutils.system_info',
   '/home/vaageesh/.pyenv/versions/venv/lib/python3.9/site-packages/numpy/distutils/system_info.py',
   'PYMODULE'),
  ('numpy.f2py',
   '/home/vaageesh/.pyenv/versions/venv/lib/python3.9/site-packages/numpy/f2py/__init__.py',
   'PYMODULE'),
  ('numpy.f2py.f2py_testing',
   '/home/vaageesh/.pyenv/versions/venv/lib/python3.9/site-packages/numpy/f2py/f2py_testing.py',
   'PYMODULE'),
  ('numpy.f2py.diagnose',
   '/home/vaageesh/.pyenv/versions/venv/lib/python3.9/site-packages/numpy/f2py/diagnose.py',
   'PYMODULE'),
  ('numpy.f2py.f2py2e',
   '/home/vaageesh/.pyenv/versions/venv/lib/python3.9/site-packages/numpy/f2py/f2py2e.py',
   'PYMODULE'),
  ('numpy.distutils.command.build_src',
   '/home/vaageesh/.pyenv/versions/venv/lib/python3.9/site-packages/numpy/distutils/command/build_src.py',
   'PYMODULE'),
  ('numpy.distutils.conv_template',
   '/home/vaageesh/.pyenv/versions/venv/lib/python3.9/site-packages/numpy/distutils/conv_template.py',
   'PYMODULE'),
  ('numpy.distutils.from_template',
   '/home/vaageesh/.pyenv/versions/venv/lib/python3.9/site-packages/numpy/distutils/from_template.py',
   'PYMODULE'),
  ('numpy.f2py.auxfuncs',
   '/home/vaageesh/.pyenv/versions/venv/lib/python3.9/site-packages/numpy/f2py/auxfuncs.py',
   'PYMODULE'),
  ('numpy.f2py.f90mod_rules',
   '/home/vaageesh/.pyenv/versions/venv/lib/python3.9/site-packages/numpy/f2py/f90mod_rules.py',
   'PYMODULE'),
  ('numpy.f2py.rules',
   '/home/vaageesh/.pyenv/versions/venv/lib/python3.9/site-packages/numpy/f2py/rules.py',
   'PYMODULE'),
  ('numpy.f2py.use_rules',
   '/home/vaageesh/.pyenv/versions/venv/lib/python3.9/site-packages/numpy/f2py/use_rules.py',
   'PYMODULE'),
  ('numpy.f2py.common_rules',
   '/home/vaageesh/.pyenv/versions/venv/lib/python3.9/site-packages/numpy/f2py/common_rules.py',
   'PYMODULE'),
  ('numpy.f2py.func2subr',
   '/home/vaageesh/.pyenv/versions/venv/lib/python3.9/site-packages/numpy/f2py/func2subr.py',
   'PYMODULE'),
  ('numpy.f2py.crackfortran',
   '/home/vaageesh/.pyenv/versions/venv/lib/python3.9/site-packages/numpy/f2py/crackfortran.py',
   'PYMODULE'),
  ('fileinput', '/usr/lib/python3.9/fileinput.py', 'PYMODULE'),
  ('numpy.f2py.cb_rules',
   '/home/vaageesh/.pyenv/versions/venv/lib/python3.9/site-packages/numpy/f2py/cb_rules.py',
   'PYMODULE'),
  ('numpy.f2py.capi_maps',
   '/home/vaageesh/.pyenv/versions/venv/lib/python3.9/site-packages/numpy/f2py/capi_maps.py',
   'PYMODULE'),
  ('numpy.f2py.cfuncs',
   '/home/vaageesh/.pyenv/versions/venv/lib/python3.9/site-packages/numpy/f2py/cfuncs.py',
   'PYMODULE'),
  ('numpy.f2py.__version__',
   '/home/vaageesh/.pyenv/versions/venv/lib/python3.9/site-packages/numpy/f2py/__version__.py',
   'PYMODULE'),
  ('numpy.distutils.command.build_py',
   '/home/vaageesh/.pyenv/versions/venv/lib/python3.9/site-packages/numpy/distutils/command/build_py.py',
   'PYMODULE'),
  ('distutils.command.build_py',
   '/usr/lib/python3.9/distutils/command/build_py.py',
   'PYMODULE'),
  ('numpy.distutils.command.build',
   '/home/vaageesh/.pyenv/versions/venv/lib/python3.9/site-packages/numpy/distutils/command/build.py',
   'PYMODULE'),
  ('distutils.command.build',
   '/usr/lib/python3.9/distutils/command/build.py',
   'PYMODULE'),
  ('numpy.distutils.command.config',
   '/home/vaageesh/.pyenv/versions/venv/lib/python3.9/site-packages/numpy/distutils/command/config.py',
   'PYMODULE'),
  ('numpy.distutils.command.autodist',
   '/home/vaageesh/.pyenv/versions/venv/lib/python3.9/site-packages/numpy/distutils/command/autodist.py',
   'PYMODULE'),
  ('numpy.distutils.mingw32ccompiler',
   '/home/vaageesh/.pyenv/versions/venv/lib/python3.9/site-packages/numpy/distutils/mingw32ccompiler.py',
   'PYMODULE'),
  ('distutils.msvccompiler',
   '/usr/lib/python3.9/distutils/msvccompiler.py',
   'PYMODULE'),
  ('distutils.unixccompiler',
   '/usr/lib/python3.9/distutils/unixccompiler.py',
   'PYMODULE'),
  ('distutils.cygwinccompiler',
   '/usr/lib/python3.9/distutils/cygwinccompiler.py',
   'PYMODULE'),
  ('distutils.command.config',
   '/usr/lib/python3.9/distutils/command/config.py',
   'PYMODULE'),
  ('distutils.core', '/usr/lib/python3.9/distutils/core.py', 'PYMODULE'),
  ('distutils.config', '/usr/lib/python3.9/distutils/config.py', 'PYMODULE'),
  ('cgi', '/usr/lib/python3.9/cgi.py', 'PYMODULE'),
  ('distutils.dist', '/usr/lib/python3.9/distutils/dist.py', 'PYMODULE'),
  ('distutils.versionpredicate',
   '/usr/lib/python3.9/distutils/versionpredicate.py',
   'PYMODULE'),
  ('numpy.distutils.core',
   '/home/vaageesh/.pyenv/versions/venv/lib/python3.9/site-packages/numpy/distutils/core.py',
   'PYMODULE'),
  ('numpy.distutils.numpy_distribution',
   '/home/vaageesh/.pyenv/versions/venv/lib/python3.9/site-packages/numpy/distutils/numpy_distribution.py',
   'PYMODULE'),
  ('numpy.distutils.extension',
   '/home/vaageesh/.pyenv/versions/venv/lib/python3.9/site-packages/numpy/distutils/extension.py',
   'PYMODULE'),
  ('numpy.distutils.fcompiler.environment',
   '/home/vaageesh/.pyenv/versions/venv/lib/python3.9/site-packages/numpy/distutils/fcompiler/environment.py',
   'PYMODULE'),
  ('numpy.distutils.exec_command',
   '/home/vaageesh/.pyenv/versions/venv/lib/python3.9/site-packages/numpy/distutils/exec_command.py',
   'PYMODULE'),
  ('numpy.distutils.misc_util',
   '/home/vaageesh/.pyenv/versions/venv/lib/python3.9/site-packages/numpy/distutils/misc_util.py',
   'PYMODULE'),
  ('curses', '/usr/lib/python3.9/curses/__init__.py', 'PYMODULE'),
  ('curses.has_key', '/usr/lib/python3.9/curses/has_key.py', 'PYMODULE'),
  ('numpy.distutils.__config__',
   '/home/vaageesh/.pyenv/versions/venv/lib/python3.9/site-packages/numpy/distutils/__config__.py',
   'PYMODULE'),
  ('numpy.distutils.npy_pkg_config',
   '/home/vaageesh/.pyenv/versions/venv/lib/python3.9/site-packages/numpy/distutils/npy_pkg_config.py',
   'PYMODULE'),
  ('numpy.distutils.unixccompiler',
   '/home/vaageesh/.pyenv/versions/venv/lib/python3.9/site-packages/numpy/distutils/unixccompiler.py',
   'PYMODULE'),
  ('numpy.distutils.ccompiler',
   '/home/vaageesh/.pyenv/versions/venv/lib/python3.9/site-packages/numpy/distutils/ccompiler.py',
   'PYMODULE'),
  ('numpy.distutils._shell_utils',
   '/home/vaageesh/.pyenv/versions/venv/lib/python3.9/site-packages/numpy/distutils/_shell_utils.py',
   'PYMODULE'),
  ('pipes', '/usr/lib/python3.9/pipes.py', 'PYMODULE'),
  ('numpy.distutils.lib2def',
   '/home/vaageesh/.pyenv/versions/venv/lib/python3.9/site-packages/numpy/distutils/lib2def.py',
   'PYMODULE'),
  ('numpy.distutils.log',
   '/home/vaageesh/.pyenv/versions/venv/lib/python3.9/site-packages/numpy/distutils/log.py',
   'PYMODULE'),
  ('numpy.testing',
   '/home/vaageesh/.pyenv/versions/venv/lib/python3.9/site-packages/numpy/testing/__init__.py',
   'PYMODULE'),
  ('numpy.testing._private.nosetester',
   '/home/vaageesh/.pyenv/versions/venv/lib/python3.9/site-packages/numpy/testing/_private/nosetester.py',
   'PYMODULE'),
  ('numpy.testing._private.noseclasses',
   '/home/vaageesh/.pyenv/versions/venv/lib/python3.9/site-packages/numpy/testing/_private/noseclasses.py',
   'PYMODULE'),
  ('numpy.testing._private.decorators',
   '/home/vaageesh/.pyenv/versions/venv/lib/python3.9/site-packages/numpy/testing/_private/decorators.py',
   'PYMODULE'),
  ('numpy.testing._private.parameterized',
   '/home/vaageesh/.pyenv/versions/venv/lib/python3.9/site-packages/numpy/testing/_private/parameterized.py',
   'PYMODULE'),
  ('numpy.testing._private',
   '/home/vaageesh/.pyenv/versions/venv/lib/python3.9/site-packages/numpy/testing/_private/__init__.py',
   'PYMODULE'),
  ('numpy.testing._private.utils',
   '/home/vaageesh/.pyenv/versions/venv/lib/python3.9/site-packages/numpy/testing/_private/utils.py',
   'PYMODULE'),
  ('numpy.core.fromnumeric',
   '/home/vaageesh/.pyenv/versions/venv/lib/python3.9/site-packages/numpy/core/fromnumeric.py',
   'PYMODULE'),
  ('numpy.core._methods',
   '/home/vaageesh/.pyenv/versions/venv/lib/python3.9/site-packages/numpy/core/_methods.py',
   'PYMODULE'),
  ('numpy.lib.stride_tricks',
   '/home/vaageesh/.pyenv/versions/venv/lib/python3.9/site-packages/numpy/lib/stride_tricks.py',
   'PYMODULE'),
  ('numpy.core.numeric',
   '/home/vaageesh/.pyenv/versions/venv/lib/python3.9/site-packages/numpy/core/numeric.py',
   'PYMODULE'),
  ('numpy.core.arrayprint',
   '/home/vaageesh/.pyenv/versions/venv/lib/python3.9/site-packages/numpy/core/arrayprint.py',
   'PYMODULE'),
  ('numpy.core._ufunc_config',
   '/home/vaageesh/.pyenv/versions/venv/lib/python3.9/site-packages/numpy/core/_ufunc_config.py',
   'PYMODULE'),
  ('numpy.core.shape_base',
   '/home/vaageesh/.pyenv/versions/venv/lib/python3.9/site-packages/numpy/core/shape_base.py',
   'PYMODULE'),
  ('numpy.core._exceptions',
   '/home/vaageesh/.pyenv/versions/venv/lib/python3.9/site-packages/numpy/core/_exceptions.py',
   'PYMODULE'),
  ('numpy.core._asarray',
   '/home/vaageesh/.pyenv/versions/venv/lib/python3.9/site-packages/numpy/core/_asarray.py',
   'PYMODULE'),
  ('numpy.core.umath',
   '/home/vaageesh/.pyenv/versions/venv/lib/python3.9/site-packages/numpy/core/umath.py',
   'PYMODULE'),
  ('numpy.core.overrides',
   '/home/vaageesh/.pyenv/versions/venv/lib/python3.9/site-packages/numpy/core/overrides.py',
   'PYMODULE'),
  ('numpy.compat._inspect',
   '/home/vaageesh/.pyenv/versions/venv/lib/python3.9/site-packages/numpy/compat/_inspect.py',
   'PYMODULE'),
  ('numpy.core.multiarray',
   '/home/vaageesh/.pyenv/versions/venv/lib/python3.9/site-packages/numpy/core/multiarray.py',
   'PYMODULE'),
  ('numpy.core.numerictypes',
   '/home/vaageesh/.pyenv/versions/venv/lib/python3.9/site-packages/numpy/core/numerictypes.py',
   'PYMODULE'),
  ('numpy.core._dtype',
   '/home/vaageesh/.pyenv/versions/venv/lib/python3.9/site-packages/numpy/core/_dtype.py',
   'PYMODULE'),
  ('numpy.core._type_aliases',
   '/home/vaageesh/.pyenv/versions/venv/lib/python3.9/site-packages/numpy/core/_type_aliases.py',
   'PYMODULE'),
  ('numpy.core._string_helpers',
   '/home/vaageesh/.pyenv/versions/venv/lib/python3.9/site-packages/numpy/core/_string_helpers.py',
   'PYMODULE'),
  ('numpy.matrixlib',
   '/home/vaageesh/.pyenv/versions/venv/lib/python3.9/site-packages/numpy/matrixlib/__init__.py',
   'PYMODULE'),
  ('numpy.matrixlib.defmatrix',
   '/home/vaageesh/.pyenv/versions/venv/lib/python3.9/site-packages/numpy/matrixlib/defmatrix.py',
   'PYMODULE'),
  ('numpy.ma',
   '/home/vaageesh/.pyenv/versions/venv/lib/python3.9/site-packages/numpy/ma/__init__.py',
   'PYMODULE'),
  ('numpy.ma.extras',
   '/home/vaageesh/.pyenv/versions/venv/lib/python3.9/site-packages/numpy/ma/extras.py',
   'PYMODULE'),
  ('numpy.lib.index_tricks',
   '/home/vaageesh/.pyenv/versions/venv/lib/python3.9/site-packages/numpy/lib/index_tricks.py',
   'PYMODULE'),
  ('numpy.lib.function_base',
   '/home/vaageesh/.pyenv/versions/venv/lib/python3.9/site-packages/numpy/lib/function_base.py',
   'PYMODULE'),
  ('numpy.lib.histograms',
   '/home/vaageesh/.pyenv/versions/venv/lib/python3.9/site-packages/numpy/lib/histograms.py',
   'PYMODULE'),
  ('numpy.lib.twodim_base',
   '/home/vaageesh/.pyenv/versions/venv/lib/python3.9/site-packages/numpy/lib/twodim_base.py',
   'PYMODULE'),
  ('numpy.core.function_base',
   '/home/vaageesh/.pyenv/versions/venv/lib/python3.9/site-packages/numpy/core/function_base.py',
   'PYMODULE'),
  ('numpy.ma.core',
   '/home/vaageesh/.pyenv/versions/venv/lib/python3.9/site-packages/numpy/ma/core.py',
   'PYMODULE'),
  ('numpy.core._internal',
   '/home/vaageesh/.pyenv/versions/venv/lib/python3.9/site-packages/numpy/core/_internal.py',
   'PYMODULE'),
  ('numpy.ctypeslib',
   '/home/vaageesh/.pyenv/versions/venv/lib/python3.9/site-packages/numpy/ctypeslib.py',
   'PYMODULE'),
  ('numpy.random',
   '/home/vaageesh/.pyenv/versions/venv/lib/python3.9/site-packages/numpy/random/__init__.py',
   'PYMODULE'),
  ('numpy.random._pickle',
   '/home/vaageesh/.pyenv/versions/venv/lib/python3.9/site-packages/numpy/random/_pickle.py',
   'PYMODULE'),
  ('numpy.polynomial',
   '/home/vaageesh/.pyenv/versions/venv/lib/python3.9/site-packages/numpy/polynomial/__init__.py',
   'PYMODULE'),
  ('numpy.polynomial._polybase',
   '/home/vaageesh/.pyenv/versions/venv/lib/python3.9/site-packages/numpy/polynomial/_polybase.py',
   'PYMODULE'),
  ('numpy.polynomial.laguerre',
   '/home/vaageesh/.pyenv/versions/venv/lib/python3.9/site-packages/numpy/polynomial/laguerre.py',
   'PYMODULE'),
  ('numpy.polynomial.hermite_e',
   '/home/vaageesh/.pyenv/versions/venv/lib/python3.9/site-packages/numpy/polynomial/hermite_e.py',
   'PYMODULE'),
  ('numpy.polynomial.hermite',
   '/home/vaageesh/.pyenv/versions/venv/lib/python3.9/site-packages/numpy/polynomial/hermite.py',
   'PYMODULE'),
  ('numpy.polynomial.legendre',
   '/home/vaageesh/.pyenv/versions/venv/lib/python3.9/site-packages/numpy/polynomial/legendre.py',
   'PYMODULE'),
  ('numpy.polynomial.chebyshev',
   '/home/vaageesh/.pyenv/versions/venv/lib/python3.9/site-packages/numpy/polynomial/chebyshev.py',
   'PYMODULE'),
  ('numpy.polynomial.polynomial',
   '/home/vaageesh/.pyenv/versions/venv/lib/python3.9/site-packages/numpy/polynomial/polynomial.py',
   'PYMODULE'),
  ('numpy.polynomial.polyutils',
   '/home/vaageesh/.pyenv/versions/venv/lib/python3.9/site-packages/numpy/polynomial/polyutils.py',
   'PYMODULE'),
  ('numpy.fft',
   '/home/vaageesh/.pyenv/versions/venv/lib/python3.9/site-packages/numpy/fft/__init__.py',
   'PYMODULE'),
  ('numpy.fft.helper',
   '/home/vaageesh/.pyenv/versions/venv/lib/python3.9/site-packages/numpy/fft/helper.py',
   'PYMODULE'),
  ('numpy.fft._pocketfft',
   '/home/vaageesh/.pyenv/versions/venv/lib/python3.9/site-packages/numpy/fft/_pocketfft.py',
   'PYMODULE'),
  ('numpy.linalg',
   '/home/vaageesh/.pyenv/versions/venv/lib/python3.9/site-packages/numpy/linalg/__init__.py',
   'PYMODULE'),
  ('numpy.linalg.linalg',
   '/home/vaageesh/.pyenv/versions/venv/lib/python3.9/site-packages/numpy/linalg/linalg.py',
   'PYMODULE'),
  ('numpy.lib',
   '/home/vaageesh/.pyenv/versions/venv/lib/python3.9/site-packages/numpy/lib/__init__.py',
   'PYMODULE'),
  ('numpy.lib._version',
   '/home/vaageesh/.pyenv/versions/venv/lib/python3.9/site-packages/numpy/lib/_version.py',
   'PYMODULE'),
  ('numpy.lib.arraypad',
   '/home/vaageesh/.pyenv/versions/venv/lib/python3.9/site-packages/numpy/lib/arraypad.py',
   'PYMODULE'),
  ('numpy.lib.arrayterator',
   '/home/vaageesh/.pyenv/versions/venv/lib/python3.9/site-packages/numpy/lib/arrayterator.py',
   'PYMODULE'),
  ('numpy.lib.npyio',
   '/home/vaageesh/.pyenv/versions/venv/lib/python3.9/site-packages/numpy/lib/npyio.py',
   'PYMODULE'),
  ('numpy.ma.mrecords',
   '/home/vaageesh/.pyenv/versions/venv/lib/python3.9/site-packages/numpy/ma/mrecords.py',
   'PYMODULE'),
  ('numpy.core.records',
   '/home/vaageesh/.pyenv/versions/venv/lib/python3.9/site-packages/numpy/core/records.py',
   'PYMODULE'),
  ('numpy.lib._iotools',
   '/home/vaageesh/.pyenv/versions/venv/lib/python3.9/site-packages/numpy/lib/_iotools.py',
   'PYMODULE'),
  ('numpy.lib._datasource',
   '/home/vaageesh/.pyenv/versions/venv/lib/python3.9/site-packages/numpy/lib/_datasource.py',
   'PYMODULE'),
  ('numpy.lib.format',
   '/home/vaageesh/.pyenv/versions/venv/lib/python3.9/site-packages/numpy/lib/format.py',
   'PYMODULE'),
  ('numpy.lib.arraysetops',
   '/home/vaageesh/.pyenv/versions/venv/lib/python3.9/site-packages/numpy/lib/arraysetops.py',
   'PYMODULE'),
  ('numpy.lib.utils',
   '/home/vaageesh/.pyenv/versions/venv/lib/python3.9/site-packages/numpy/lib/utils.py',
   'PYMODULE'),
  ('numpy.lib.polynomial',
   '/home/vaageesh/.pyenv/versions/venv/lib/python3.9/site-packages/numpy/lib/polynomial.py',
   'PYMODULE'),
  ('numpy.lib.ufunclike',
   '/home/vaageesh/.pyenv/versions/venv/lib/python3.9/site-packages/numpy/lib/ufunclike.py',
   'PYMODULE'),
  ('numpy.lib.shape_base',
   '/home/vaageesh/.pyenv/versions/venv/lib/python3.9/site-packages/numpy/lib/shape_base.py',
   'PYMODULE'),
  ('numpy.lib.nanfunctions',
   '/home/vaageesh/.pyenv/versions/venv/lib/python3.9/site-packages/numpy/lib/nanfunctions.py',
   'PYMODULE'),
  ('numpy.lib.type_check',
   '/home/vaageesh/.pyenv/versions/venv/lib/python3.9/site-packages/numpy/lib/type_check.py',
   'PYMODULE'),
  ('numpy.core.getlimits',
   '/home/vaageesh/.pyenv/versions/venv/lib/python3.9/site-packages/numpy/core/getlimits.py',
   'PYMODULE'),
  ('numpy.core.machar',
   '/home/vaageesh/.pyenv/versions/venv/lib/python3.9/site-packages/numpy/core/machar.py',
   'PYMODULE'),
  ('numpy.lib.scimath',
   '/home/vaageesh/.pyenv/versions/venv/lib/python3.9/site-packages/numpy/lib/scimath.py',
   'PYMODULE'),
  ('numpy.lib.mixins',
   '/home/vaageesh/.pyenv/versions/venv/lib/python3.9/site-packages/numpy/lib/mixins.py',
   'PYMODULE'),
  ('numpy.compat',
   '/home/vaageesh/.pyenv/versions/venv/lib/python3.9/site-packages/numpy/compat/__init__.py',
   'PYMODULE'),
  ('numpy.compat.py3k',
   '/home/vaageesh/.pyenv/versions/venv/lib/python3.9/site-packages/numpy/compat/py3k.py',
   'PYMODULE'),
  ('numpy.core',
   '/home/vaageesh/.pyenv/versions/venv/lib/python3.9/site-packages/numpy/core/__init__.py',
   'PYMODULE'),
  ('numpy.core._dtype_ctypes',
   '/home/vaageesh/.pyenv/versions/venv/lib/python3.9/site-packages/numpy/core/_dtype_ctypes.py',
   'PYMODULE'),
  ('numpy.core._add_newdocs_scalars',
   '/home/vaageesh/.pyenv/versions/venv/lib/python3.9/site-packages/numpy/core/_add_newdocs_scalars.py',
   'PYMODULE'),
  ('numpy.core._add_newdocs',
   '/home/vaageesh/.pyenv/versions/venv/lib/python3.9/site-packages/numpy/core/_add_newdocs.py',
   'PYMODULE'),
  ('numpy.core.einsumfunc',
   '/home/vaageesh/.pyenv/versions/venv/lib/python3.9/site-packages/numpy/core/einsumfunc.py',
   'PYMODULE'),
  ('numpy.core.memmap',
   '/home/vaageesh/.pyenv/versions/venv/lib/python3.9/site-packages/numpy/core/memmap.py',
   'PYMODULE'),
  ('numpy.core.defchararray',
   '/home/vaageesh/.pyenv/versions/venv/lib/python3.9/site-packages/numpy/core/defchararray.py',
   'PYMODULE'),
  ('numpy._distributor_init',
   '/home/vaageesh/.pyenv/versions/venv/lib/python3.9/site-packages/numpy/_distributor_init.py',
   'PYMODULE'),
  ('numpy.version',
   '/home/vaageesh/.pyenv/versions/venv/lib/python3.9/site-packages/numpy/version.py',
   'PYMODULE'),
  ('numpy.__config__',
   '/home/vaageesh/.pyenv/versions/venv/lib/python3.9/site-packages/numpy/__config__.py',
   'PYMODULE'),
  ('numpy._globals',
   '/home/vaageesh/.pyenv/versions/venv/lib/python3.9/site-packages/numpy/_globals.py',
   'PYMODULE'),
  ('pandas._version',
   '/home/vaageesh/.pyenv/versions/venv/lib/python3.9/site-packages/pandas/_version.py',
   'PYMODULE'),
  ('pandas.arrays',
   '/home/vaageesh/.pyenv/versions/venv/lib/python3.9/site-packages/pandas/arrays/__init__.py',
   'PYMODULE'),
  ('pandas.core.arrays',
   '/home/vaageesh/.pyenv/versions/venv/lib/python3.9/site-packages/pandas/core/arrays/__init__.py',
   'PYMODULE'),
  ('pandas.core.arrays.timedeltas',
   '/home/vaageesh/.pyenv/versions/venv/lib/python3.9/site-packages/pandas/core/arrays/timedeltas.py',
   'PYMODULE'),
  ('pandas.io.formats.format',
   '/home/vaageesh/.pyenv/versions/venv/lib/python3.9/site-packages/pandas/io/formats/format.py',
   'PYMODULE'),
  ('pandas.io.formats.csvs',
   '/home/vaageesh/.pyenv/versions/venv/lib/python3.9/site-packages/pandas/io/formats/csvs.py',
   'PYMODULE'),
  ('pandas.io.formats.string',
   '/home/vaageesh/.pyenv/versions/venv/lib/python3.9/site-packages/pandas/io/formats/string.py',
   'PYMODULE'),
  ('pandas.io.formats.html',
   '/home/vaageesh/.pyenv/versions/venv/lib/python3.9/site-packages/pandas/io/formats/html.py',
   'PYMODULE'),
  ('pandas.io.formats.latex',
   '/home/vaageesh/.pyenv/versions/venv/lib/python3.9/site-packages/pandas/io/formats/latex.py',
   'PYMODULE'),
  ('pandas.core.indexes.multi',
   '/home/vaageesh/.pyenv/versions/venv/lib/python3.9/site-packages/pandas/core/indexes/multi.py',
   'PYMODULE'),
  ('pandas.core.indexes',
   '/home/vaageesh/.pyenv/versions/venv/lib/python3.9/site-packages/pandas/core/indexes/__init__.py',
   'PYMODULE'),
  ('pandas.core.reshape.util',
   '/home/vaageesh/.pyenv/versions/venv/lib/python3.9/site-packages/pandas/core/reshape/util.py',
   'PYMODULE'),
  ('pandas.core.reshape',
   '/home/vaageesh/.pyenv/versions/venv/lib/python3.9/site-packages/pandas/core/reshape/__init__.py',
   'PYMODULE'),
  ('pandas.core.sorting',
   '/home/vaageesh/.pyenv/versions/venv/lib/python3.9/site-packages/pandas/core/sorting.py',
   'PYMODULE'),
  ('pandas.core.ops.invalid',
   '/home/vaageesh/.pyenv/versions/venv/lib/python3.9/site-packages/pandas/core/ops/invalid.py',
   'PYMODULE'),
  ('pandas.core.ops',
   '/home/vaageesh/.pyenv/versions/venv/lib/python3.9/site-packages/pandas/core/ops/__init__.py',
   'PYMODULE'),
  ('pandas.core.ops.roperator',
   '/home/vaageesh/.pyenv/versions/venv/lib/python3.9/site-packages/pandas/core/ops/roperator.py',
   'PYMODULE'),
  ('pandas.core.ops.methods',
   '/home/vaageesh/.pyenv/versions/venv/lib/python3.9/site-packages/pandas/core/ops/methods.py',
   'PYMODULE'),
  ('pandas.core.ops.mask_ops',
   '/home/vaageesh/.pyenv/versions/venv/lib/python3.9/site-packages/pandas/core/ops/mask_ops.py',
   'PYMODULE'),
  ('pandas.core.ops.docstrings',
   '/home/vaageesh/.pyenv/versions/venv/lib/python3.9/site-packages/pandas/core/ops/docstrings.py',
   'PYMODULE'),
  ('pandas.core.ops.array_ops',
   '/home/vaageesh/.pyenv/versions/venv/lib/python3.9/site-packages/pandas/core/ops/array_ops.py',
   'PYMODULE'),
  ('pandas.core.computation.expressions',
   '/home/vaageesh/.pyenv/versions/venv/lib/python3.9/site-packages/pandas/core/computation/expressions.py',
   'PYMODULE'),
  ('pandas.core.computation',
   '/home/vaageesh/.pyenv/versions/venv/lib/python3.9/site-packages/pandas/core/computation/__init__.py',
   'PYMODULE'),
  ('pandas.core.computation.check',
   '/home/vaageesh/.pyenv/versions/venv/lib/python3.9/site-packages/pandas/core/computation/check.py',
   'PYMODULE'),
  ('pandas.compat._optional',
   '/home/vaageesh/.pyenv/versions/venv/lib/python3.9/site-packages/pandas/compat/_optional.py',
   'PYMODULE'),
  ('pandas.compat',
   '/home/vaageesh/.pyenv/versions/venv/lib/python3.9/site-packages/pandas/compat/__init__.py',
   'PYMODULE'),
  ('pandas.core.ops.dispatch',
   '/home/vaageesh/.pyenv/versions/venv/lib/python3.9/site-packages/pandas/core/ops/dispatch.py',
   'PYMODULE'),
  ('pandas.core.ops.missing',
   '/home/vaageesh/.pyenv/versions/venv/lib/python3.9/site-packages/pandas/core/ops/missing.py',
   'PYMODULE'),
  ('pandas.core.missing',
   '/home/vaageesh/.pyenv/versions/venv/lib/python3.9/site-packages/pandas/core/missing.py',
   'PYMODULE'),
  ('pandas.core.indexes.numeric',
   '/home/vaageesh/.pyenv/versions/venv/lib/python3.9/site-packages/pandas/core/indexes/numeric.py',
   'PYMODULE'),
  ('pandas.core.indexes.frozen',
   '/home/vaageesh/.pyenv/versions/venv/lib/python3.9/site-packages/pandas/core/indexes/frozen.py',
   'PYMODULE'),
  ('pandas.core.indexes.base',
   '/home/vaageesh/.pyenv/versions/venv/lib/python3.9/site-packages/pandas/core/indexes/base.py',
   'PYMODULE'),
  ('pandas.core.reshape.merge',
   '/home/vaageesh/.pyenv/versions/venv/lib/python3.9/site-packages/pandas/core/reshape/merge.py',
   'PYMODULE'),
  ('pandas.core.internals',
   '/home/vaageesh/.pyenv/versions/venv/lib/python3.9/site-packages/pandas/core/internals/__init__.py',
   'PYMODULE'),
  ('pandas.core.internals.managers',
   '/home/vaageesh/.pyenv/versions/venv/lib/python3.9/site-packages/pandas/core/internals/managers.py',
   'PYMODULE'),
  ('pandas.core.internals.ops',
   '/home/vaageesh/.pyenv/versions/venv/lib/python3.9/site-packages/pandas/core/internals/ops.py',
   'PYMODULE'),
  ('pandas.util._validators',
   '/home/vaageesh/.pyenv/versions/venv/lib/python3.9/site-packages/pandas/util/_validators.py',
   'PYMODULE'),
  ('pandas.util',
   '/home/vaageesh/.pyenv/versions/venv/lib/python3.9/site-packages/pandas/util/__init__.py',
   'PYMODULE'),
  ('pandas.util.testing',
   '/home/vaageesh/.pyenv/versions/venv/lib/python3.9/site-packages/pandas/util/testing.py',
   'PYMODULE'),
  ('pandas._testing',
   '/home/vaageesh/.pyenv/versions/venv/lib/python3.9/site-packages/pandas/_testing.py',
   'PYMODULE'),
  ('pandas._config.localization',
   '/home/vaageesh/.pyenv/versions/venv/lib/python3.9/site-packages/pandas/_config/localization.py',
   'PYMODULE'),
  ('pandas.core.util.hashing',
   '/home/vaageesh/.pyenv/versions/venv/lib/python3.9/site-packages/pandas/core/util/hashing.py',
   'PYMODULE'),
  ('pandas.core.util',
   '/home/vaageesh/.pyenv/versions/venv/lib/python3.9/site-packages/pandas/core/util/__init__.py',
   'PYMODULE'),
  ('pandas.core.internals.concat',
   '/home/vaageesh/.pyenv/versions/venv/lib/python3.9/site-packages/pandas/core/internals/concat.py',
   'PYMODULE'),
  ('pandas.core.arrays.sparse.dtype',
   '/home/vaageesh/.pyenv/versions/venv/lib/python3.9/site-packages/pandas/core/arrays/sparse/dtype.py',
   'PYMODULE'),
  ('pandas.core.arrays.sparse.array',
   '/home/vaageesh/.pyenv/versions/venv/lib/python3.9/site-packages/pandas/core/arrays/sparse/array.py',
   'PYMODULE'),
  ('pandas.core.arraylike',
   '/home/vaageesh/.pyenv/versions/venv/lib/python3.9/site-packages/pandas/core/arraylike.py',
   'PYMODULE'),
  ('pandas.core.generic',
   '/home/vaageesh/.pyenv/versions/venv/lib/python3.9/site-packages/pandas/core/generic.py',
   'PYMODULE'),
  ('pandas.core.tools.datetimes',
   '/home/vaageesh/.pyenv/versions/venv/lib/python3.9/site-packages/pandas/core/tools/datetimes.py',
   'PYMODULE'),
  ('pandas.core.tools',
   '/home/vaageesh/.pyenv/versions/venv/lib/python3.9/site-packages/pandas/core/tools/__init__.py',
   'PYMODULE'),
  ('pandas.core.tools.times',
   '/home/vaageesh/.pyenv/versions/venv/lib/python3.9/site-packages/pandas/core/tools/times.py',
   'PYMODULE'),
  ('pandas.io.clipboards',
   '/home/vaageesh/.pyenv/versions/venv/lib/python3.9/site-packages/pandas/io/clipboards.py',
   'PYMODULE'),
  ('pandas.io.parsers',
   '/home/vaageesh/.pyenv/versions/venv/lib/python3.9/site-packages/pandas/io/parsers.py',
   'PYMODULE'),
  ('pandas.io.date_converters',
   '/home/vaageesh/.pyenv/versions/venv/lib/python3.9/site-packages/pandas/io/date_converters.py',
   'PYMODULE'),
  ('pandas.io.clipboard',
   '/home/vaageesh/.pyenv/versions/venv/lib/python3.9/site-packages/pandas/io/clipboard/__init__.py',
   'PYMODULE'),
  ('ctypes.wintypes', '/usr/lib/python3.9/ctypes/wintypes.py', 'PYMODULE'),
  ('pandas.io.pickle',
   '/home/vaageesh/.pyenv/versions/venv/lib/python3.9/site-packages/pandas/io/pickle.py',
   'PYMODULE'),
  ('pandas.compat.pickle_compat',
   '/home/vaageesh/.pyenv/versions/venv/lib/python3.9/site-packages/pandas/compat/pickle_compat.py',
   'PYMODULE'),
  ('pandas.io.sql',
   '/home/vaageesh/.pyenv/versions/venv/lib/python3.9/site-packages/pandas/io/sql.py',
   'PYMODULE'),
  ('sqlite3', '/usr/lib/python3.9/sqlite3/__init__.py', 'PYMODULE'),
  ('sqlite3.dump', '/usr/lib/python3.9/sqlite3/dump.py', 'PYMODULE'),
  ('sqlite3.dbapi2', '/usr/lib/python3.9/sqlite3/dbapi2.py', 'PYMODULE'),
  ('pandas.io.pytables',
   '/home/vaageesh/.pyenv/versions/venv/lib/python3.9/site-packages/pandas/io/pytables.py',
   'PYMODULE'),
  ('pandas.core.computation.pytables',
   '/home/vaageesh/.pyenv/versions/venv/lib/python3.9/site-packages/pandas/core/computation/pytables.py',
   'PYMODULE'),
  ('pandas.core.computation.common',
   '/home/vaageesh/.pyenv/versions/venv/lib/python3.9/site-packages/pandas/core/computation/common.py',
   'PYMODULE'),
  ('pandas.core.computation.scope',
   '/home/vaageesh/.pyenv/versions/venv/lib/python3.9/site-packages/pandas/core/computation/scope.py',
   'PYMODULE'),
  ('pandas.core.computation.ops',
   '/home/vaageesh/.pyenv/versions/venv/lib/python3.9/site-packages/pandas/core/computation/ops.py',
   'PYMODULE'),
  ('pandas.core.computation.eval',
   '/home/vaageesh/.pyenv/versions/venv/lib/python3.9/site-packages/pandas/core/computation/eval.py',
   'PYMODULE'),
  ('pandas.core.computation.engines',
   '/home/vaageesh/.pyenv/versions/venv/lib/python3.9/site-packages/pandas/core/computation/engines.py',
   'PYMODULE'),
  ('pandas.core.computation.align',
   '/home/vaageesh/.pyenv/versions/venv/lib/python3.9/site-packages/pandas/core/computation/align.py',
   'PYMODULE'),
  ('pandas.core.computation.expr',
   '/home/vaageesh/.pyenv/versions/venv/lib/python3.9/site-packages/pandas/core/computation/expr.py',
   'PYMODULE'),
  ('pandas.compat.chainmap',
   '/home/vaageesh/.pyenv/versions/venv/lib/python3.9/site-packages/pandas/compat/chainmap.py',
   'PYMODULE'),
  ('pandas.io',
   '/home/vaageesh/.pyenv/versions/venv/lib/python3.9/site-packages/pandas/io/__init__.py',
   'PYMODULE'),
  ('pandas.io.gbq',
   '/home/vaageesh/.pyenv/versions/venv/lib/python3.9/site-packages/pandas/io/gbq.py',
   'PYMODULE'),
  ('pandas.io.formats.excel',
   '/home/vaageesh/.pyenv/versions/venv/lib/python3.9/site-packages/pandas/io/formats/excel.py',
   'PYMODULE'),
  ('pandas.io.excel',
   '/home/vaageesh/.pyenv/versions/venv/lib/python3.9/site-packages/pandas/io/excel/__init__.py',
   'PYMODULE'),
  ('pandas.io.excel._xlwt',
   '/home/vaageesh/.pyenv/versions/venv/lib/python3.9/site-packages/pandas/io/excel/_xlwt.py',
   'PYMODULE'),
  ('pandas.io.excel._xlsxwriter',
   '/home/vaageesh/.pyenv/versions/venv/lib/python3.9/site-packages/pandas/io/excel/_xlsxwriter.py',
   'PYMODULE'),
  ('pandas.io.excel._util',
   '/home/vaageesh/.pyenv/versions/venv/lib/python3.9/site-packages/pandas/io/excel/_util.py',
   'PYMODULE'),
  ('pandas.io.excel._openpyxl',
   '/home/vaageesh/.pyenv/versions/venv/lib/python3.9/site-packages/pandas/io/excel/_openpyxl.py',
   'PYMODULE'),
  ('pandas.io.excel._odswriter',
   '/home/vaageesh/.pyenv/versions/venv/lib/python3.9/site-packages/pandas/io/excel/_odswriter.py',
   'PYMODULE'),
  ('pandas.io.excel._base',
   '/home/vaageesh/.pyenv/versions/venv/lib/python3.9/site-packages/pandas/io/excel/_base.py',
   'PYMODULE'),
  ('pandas.io.excel._xlrd',
   '/home/vaageesh/.pyenv/versions/venv/lib/python3.9/site-packages/pandas/io/excel/_xlrd.py',
   'PYMODULE'),
  ('pandas.io.excel._pyxlsb',
   '/home/vaageesh/.pyenv/versions/venv/lib/python3.9/site-packages/pandas/io/excel/_pyxlsb.py',
   'PYMODULE'),
  ('pandas.io.excel._odfreader',
   '/home/vaageesh/.pyenv/versions/venv/lib/python3.9/site-packages/pandas/io/excel/_odfreader.py',
   'PYMODULE'),
  ('pandas.io.formats.css',
   '/home/vaageesh/.pyenv/versions/venv/lib/python3.9/site-packages/pandas/io/formats/css.py',
   'PYMODULE'),
  ('pandas.io.formats._color_data',
   '/home/vaageesh/.pyenv/versions/venv/lib/python3.9/site-packages/pandas/io/formats/_color_data.py',
   'PYMODULE'),
  ('pandas.core.dtypes',
   '/home/vaageesh/.pyenv/versions/venv/lib/python3.9/site-packages/pandas/core/dtypes/__init__.py',
   'PYMODULE'),
  ('pandas.core.computation.parsing',
   '/home/vaageesh/.pyenv/versions/venv/lib/python3.9/site-packages/pandas/core/computation/parsing.py',
   'PYMODULE'),
  ('pandas.core.window.indexers',
   '/home/vaageesh/.pyenv/versions/venv/lib/python3.9/site-packages/pandas/core/window/indexers.py',
   'PYMODULE'),
  ('pandas.core.series',
   '/home/vaageesh/.pyenv/versions/venv/lib/python3.9/site-packages/pandas/core/series.py',
   'PYMODULE'),
  ('pandas.core.reshape.reshape',
   '/home/vaageesh/.pyenv/versions/venv/lib/python3.9/site-packages/pandas/core/reshape/reshape.py',
   'PYMODULE'),
  ('pandas.core.groupby.generic',
   '/home/vaageesh/.pyenv/versions/venv/lib/python3.9/site-packages/pandas/core/groupby/generic.py',
   'PYMODULE'),
  ('pandas.core.reshape.tile',
   '/home/vaageesh/.pyenv/versions/venv/lib/python3.9/site-packages/pandas/core/reshape/tile.py',
   'PYMODULE'),
  ('pandas.core.util.numba_',
   '/home/vaageesh/.pyenv/versions/venv/lib/python3.9/site-packages/pandas/core/util/numba_.py',
   'PYMODULE'),
  ('pandas.core.groupby.groupby',
   '/home/vaageesh/.pyenv/versions/venv/lib/python3.9/site-packages/pandas/core/groupby/groupby.py',
   'PYMODULE'),
  ('pandas.core.groupby.grouper',
   '/home/vaageesh/.pyenv/versions/venv/lib/python3.9/site-packages/pandas/core/groupby/grouper.py',
   'PYMODULE'),
  ('pandas.core.groupby.categorical',
   '/home/vaageesh/.pyenv/versions/venv/lib/python3.9/site-packages/pandas/core/groupby/categorical.py',
   'PYMODULE'),
  ('pandas.core.groupby.ops',
   '/home/vaageesh/.pyenv/versions/venv/lib/python3.9/site-packages/pandas/core/groupby/ops.py',
   'PYMODULE'),
  ('pandas.core.groupby.numba_',
   '/home/vaageesh/.pyenv/versions/venv/lib/python3.9/site-packages/pandas/core/groupby/numba_.py',
   'PYMODULE'),
  ('pandas.core.groupby.base',
   '/home/vaageesh/.pyenv/versions/venv/lib/python3.9/site-packages/pandas/core/groupby/base.py',
   'PYMODULE'),
  ('pandas.plotting',
   '/home/vaageesh/.pyenv/versions/venv/lib/python3.9/site-packages/pandas/plotting/__init__.py',
   'PYMODULE'),
  ('pandas.plotting._misc',
   '/home/vaageesh/.pyenv/versions/venv/lib/python3.9/site-packages/pandas/plotting/_misc.py',
   'PYMODULE'),
  ('pandas.plotting._core',
   '/home/vaageesh/.pyenv/versions/venv/lib/python3.9/site-packages/pandas/plotting/_core.py',
   'PYMODULE'),
  ('pandas.plotting._matplotlib',
   '/home/vaageesh/.pyenv/versions/venv/lib/python3.9/site-packages/pandas/plotting/_matplotlib/__init__.py',
   'PYMODULE'),
  ('pandas.plotting._matplotlib.tools',
   '/home/vaageesh/.pyenv/versions/venv/lib/python3.9/site-packages/pandas/plotting/_matplotlib/tools.py',
   'PYMODULE'),
  ('pandas.plotting._matplotlib.compat',
   '/home/vaageesh/.pyenv/versions/venv/lib/python3.9/site-packages/pandas/plotting/_matplotlib/compat.py',
   'PYMODULE'),
  ('pandas.plotting._matplotlib.misc',
   '/home/vaageesh/.pyenv/versions/venv/lib/python3.9/site-packages/pandas/plotting/_matplotlib/misc.py',
   'PYMODULE'),
  ('pandas.plotting._matplotlib.style',
   '/home/vaageesh/.pyenv/versions/venv/lib/python3.9/site-packages/pandas/plotting/_matplotlib/style.py',
   'PYMODULE'),
  ('pandas.plotting._matplotlib.hist',
   '/home/vaageesh/.pyenv/versions/venv/lib/python3.9/site-packages/pandas/plotting/_matplotlib/hist.py',
   'PYMODULE'),
  ('pandas.plotting._matplotlib.core',
   '/home/vaageesh/.pyenv/versions/venv/lib/python3.9/site-packages/pandas/plotting/_matplotlib/core.py',
   'PYMODULE'),
  ('pandas.plotting._matplotlib.timeseries',
   '/home/vaageesh/.pyenv/versions/venv/lib/python3.9/site-packages/pandas/plotting/_matplotlib/timeseries.py',
   'PYMODULE'),
  ('pandas.tseries.frequencies',
   '/home/vaageesh/.pyenv/versions/venv/lib/python3.9/site-packages/pandas/tseries/frequencies.py',
   'PYMODULE'),
  ('pandas.plotting._matplotlib.converter',
   '/home/vaageesh/.pyenv/versions/venv/lib/python3.9/site-packages/pandas/plotting/_matplotlib/converter.py',
   'PYMODULE'),
  ('dateutil.relativedelta',
   '/home/vaageesh/.pyenv/versions/venv/lib/python3.9/site-packages/dateutil/relativedelta.py',
   'PYMODULE'),
  ('dateutil',
   '/home/vaageesh/.pyenv/versions/venv/lib/python3.9/site-packages/dateutil/__init__.py',
   'PYMODULE'),
  ('dateutil.rrule',
   '/home/vaageesh/.pyenv/versions/venv/lib/python3.9/site-packages/dateutil/rrule.py',
   'PYMODULE'),
  ('dateutil.parser',
   '/home/vaageesh/.pyenv/versions/venv/lib/python3.9/site-packages/dateutil/parser/__init__.py',
   'PYMODULE'),
  ('dateutil.parser.isoparser',
   '/home/vaageesh/.pyenv/versions/venv/lib/python3.9/site-packages/dateutil/parser/isoparser.py',
   'PYMODULE'),
  ('dateutil.parser._parser',
   '/home/vaageesh/.pyenv/versions/venv/lib/python3.9/site-packages/dateutil/parser/_parser.py',
   'PYMODULE'),
  ('dateutil.tz',
   '/home/vaageesh/.pyenv/versions/venv/lib/python3.9/site-packages/dateutil/tz/__init__.py',
   'PYMODULE'),
  ('dateutil.tz.tz',
   '/home/vaageesh/.pyenv/versions/venv/lib/python3.9/site-packages/dateutil/tz/tz.py',
   'PYMODULE'),
  ('dateutil.zoneinfo',
   '/home/vaageesh/.pyenv/versions/venv/lib/python3.9/site-packages/dateutil/zoneinfo/__init__.py',
   'PYMODULE'),
  ('dateutil.tz.win',
   '/home/vaageesh/.pyenv/versions/venv/lib/python3.9/site-packages/dateutil/tz/win.py',
   'PYMODULE'),
  ('dateutil.tz._factories',
   '/home/vaageesh/.pyenv/versions/venv/lib/python3.9/site-packages/dateutil/tz/_factories.py',
   'PYMODULE'),
  ('dateutil.tz._common',
   '/home/vaageesh/.pyenv/versions/venv/lib/python3.9/site-packages/dateutil/tz/_common.py',
   'PYMODULE'),
  ('dateutil.easter',
   '/home/vaageesh/.pyenv/versions/venv/lib/python3.9/site-packages/dateutil/easter.py',
   'PYMODULE'),
  ('dateutil._version',
   '/home/vaageesh/.pyenv/versions/venv/lib/python3.9/site-packages/dateutil/_version.py',
   'PYMODULE'),
  ('dateutil._common',
   '/home/vaageesh/.pyenv/versions/venv/lib/python3.9/site-packages/dateutil/_common.py',
   'PYMODULE'),
  ('six',
   '/home/vaageesh/.pyenv/versions/venv/lib/python3.9/site-packages/six.py',
   'PYMODULE'),
  ('pandas.plotting._matplotlib.boxplot',
   '/home/vaageesh/.pyenv/versions/venv/lib/python3.9/site-packages/pandas/plotting/_matplotlib/boxplot.py',
   'PYMODULE'),
  ('pandas.core.indexes.accessors',
   '/home/vaageesh/.pyenv/versions/venv/lib/python3.9/site-packages/pandas/core/indexes/accessors.py',
   'PYMODULE'),
  ('pandas.core.aggregation',
   '/home/vaageesh/.pyenv/versions/venv/lib/python3.9/site-packages/pandas/core/aggregation.py',
   'PYMODULE'),
  ('pandas.core.resample',
   '/home/vaageesh/.pyenv/versions/venv/lib/python3.9/site-packages/pandas/core/resample.py',
   'PYMODULE'),
  ('pandas.core.window',
   '/home/vaageesh/.pyenv/versions/venv/lib/python3.9/site-packages/pandas/core/window/__init__.py',
   'PYMODULE'),
  ('pandas.core.window.rolling',
   '/home/vaageesh/.pyenv/versions/venv/lib/python3.9/site-packages/pandas/core/window/rolling.py',
   'PYMODULE'),
  ('pandas.core.window.numba_',
   '/home/vaageesh/.pyenv/versions/venv/lib/python3.9/site-packages/pandas/core/window/numba_.py',
   'PYMODULE'),
  ('pandas.core.window.common',
   '/home/vaageesh/.pyenv/versions/venv/lib/python3.9/site-packages/pandas/core/window/common.py',
   'PYMODULE'),
  ('pandas.core.window.expanding',
   '/home/vaageesh/.pyenv/versions/venv/lib/python3.9/site-packages/pandas/core/window/expanding.py',
   'PYMODULE'),
  ('pandas.core.window.ewm',
   '/home/vaageesh/.pyenv/versions/venv/lib/python3.9/site-packages/pandas/core/window/ewm.py',
   'PYMODULE'),
  ('pandas.core.shared_docs',
   '/home/vaageesh/.pyenv/versions/venv/lib/python3.9/site-packages/pandas/core/shared_docs.py',
   'PYMODULE'),
  ('pandas.core.flags',
   '/home/vaageesh/.pyenv/versions/venv/lib/python3.9/site-packages/pandas/core/flags.py',
   'PYMODULE'),
  ('pandas.core.indexing',
   '/home/vaageesh/.pyenv/versions/venv/lib/python3.9/site-packages/pandas/core/indexing.py',
   'PYMODULE'),
  ('pandas.core.dtypes.inference',
   '/home/vaageesh/.pyenv/versions/venv/lib/python3.9/site-packages/pandas/core/dtypes/inference.py',
   'PYMODULE'),
  ('dataclasses', '/usr/lib/python3.9/dataclasses.py', 'PYMODULE'),
  ('pandas.core.dtypes.base',
   '/home/vaageesh/.pyenv/versions/venv/lib/python3.9/site-packages/pandas/core/dtypes/base.py',
   'PYMODULE'),
  ('pandas.core.internals.blocks',
   '/home/vaageesh/.pyenv/versions/venv/lib/python3.9/site-packages/pandas/core/internals/blocks.py',
   'PYMODULE'),
  ('pandas.core.array_algos.transforms',
   '/home/vaageesh/.pyenv/versions/venv/lib/python3.9/site-packages/pandas/core/array_algos/transforms.py',
   'PYMODULE'),
  ('pandas.core.array_algos',
   '/home/vaageesh/.pyenv/versions/venv/lib/python3.9/site-packages/pandas/core/array_algos/__init__.py',
   'PYMODULE'),
  ('pandas.core.array_algos.masked_reductions',
   '/home/vaageesh/.pyenv/versions/venv/lib/python3.9/site-packages/pandas/core/array_algos/masked_reductions.py',
   'PYMODULE'),
  ('pandas.core.array_algos.replace',
   '/home/vaageesh/.pyenv/versions/venv/lib/python3.9/site-packages/pandas/core/array_algos/replace.py',
   'PYMODULE'),
  ('pandas.core.frame',
   '/home/vaageesh/.pyenv/versions/venv/lib/python3.9/site-packages/pandas/core/frame.py',
   'PYMODULE'),
  ('pandas.core.apply',
   '/home/vaageesh/.pyenv/versions/venv/lib/python3.9/site-packages/pandas/core/apply.py',
   'PYMODULE'),
  ('pandas.core.reshape.pivot',
   '/home/vaageesh/.pyenv/versions/venv/lib/python3.9/site-packages/pandas/core/reshape/pivot.py',
   'PYMODULE'),
  ('pandas.io.parquet',
   '/home/vaageesh/.pyenv/versions/venv/lib/python3.9/site-packages/pandas/io/parquet.py',
   'PYMODULE'),
  ('pandas.core.arrays._arrow_utils',
   '/home/vaageesh/.pyenv/versions/venv/lib/python3.9/site-packages/pandas/core/arrays/_arrow_utils.py',
   'PYMODULE'),
  ('pandas.io.feather_format',
   '/home/vaageesh/.pyenv/versions/venv/lib/python3.9/site-packages/pandas/io/feather_format.py',
   'PYMODULE'),
  ('pandas.io.stata',
   '/home/vaageesh/.pyenv/versions/venv/lib/python3.9/site-packages/pandas/io/stata.py',
   'PYMODULE'),
  ('pandas.io.formats.style',
   '/home/vaageesh/.pyenv/versions/venv/lib/python3.9/site-packages/pandas/io/formats/style.py',
   'PYMODULE'),
  ('pandas.api.types',
   '/home/vaageesh/.pyenv/versions/venv/lib/python3.9/site-packages/pandas/api/types/__init__.py',
   'PYMODULE'),
  ('pandas.core.dtypes.api',
   '/home/vaageesh/.pyenv/versions/venv/lib/python3.9/site-packages/pandas/core/dtypes/api.py',
   'PYMODULE'),
  ('pandas.io.formats.info',
   '/home/vaageesh/.pyenv/versions/venv/lib/python3.9/site-packages/pandas/io/formats/info.py',
   'PYMODULE'),
  ('pandas.io.formats.console',
   '/home/vaageesh/.pyenv/versions/venv/lib/python3.9/site-packages/pandas/io/formats/console.py',
   'PYMODULE'),
  ('pandas.core.reshape.melt',
   '/home/vaageesh/.pyenv/versions/venv/lib/python3.9/site-packages/pandas/core/reshape/melt.py',
   'PYMODULE'),
  ('pandas.core.tools.numeric',
   '/home/vaageesh/.pyenv/versions/venv/lib/python3.9/site-packages/pandas/core/tools/numeric.py',
   'PYMODULE'),
  ('pandas.core.internals.construction',
   '/home/vaageesh/.pyenv/versions/venv/lib/python3.9/site-packages/pandas/core/internals/construction.py',
   'PYMODULE'),
  ('pandas.core.groupby',
   '/home/vaageesh/.pyenv/versions/venv/lib/python3.9/site-packages/pandas/core/groupby/__init__.py',
   'PYMODULE'),
  ('pandas.core.indexes.interval',
   '/home/vaageesh/.pyenv/versions/venv/lib/python3.9/site-packages/pandas/core/indexes/interval.py',
   'PYMODULE'),
  ('pandas.core.indexes.extension',
   '/home/vaageesh/.pyenv/versions/venv/lib/python3.9/site-packages/pandas/core/indexes/extension.py',
   'PYMODULE'),
  ('pandas.core.arrays._mixins',
   '/home/vaageesh/.pyenv/versions/venv/lib/python3.9/site-packages/pandas/core/arrays/_mixins.py',
   'PYMODULE'),
  ('pandas.util._exceptions',
   '/home/vaageesh/.pyenv/versions/venv/lib/python3.9/site-packages/pandas/util/_exceptions.py',
   'PYMODULE'),
  ('pandas.core.indexes.category',
   '/home/vaageesh/.pyenv/versions/venv/lib/python3.9/site-packages/pandas/core/indexes/category.py',
   'PYMODULE'),
  ('pandas.core.indexes.range',
   '/home/vaageesh/.pyenv/versions/venv/lib/python3.9/site-packages/pandas/core/indexes/range.py',
   'PYMODULE'),
  ('pandas.core.indexes.period',
   '/home/vaageesh/.pyenv/versions/venv/lib/python3.9/site-packages/pandas/core/indexes/period.py',
   'PYMODULE'),
  ('pandas.core.indexes.datetimelike',
   '/home/vaageesh/.pyenv/versions/venv/lib/python3.9/site-packages/pandas/core/indexes/datetimelike.py',
   'PYMODULE'),
  ('pandas.core.tools.timedeltas',
   '/home/vaageesh/.pyenv/versions/venv/lib/python3.9/site-packages/pandas/core/tools/timedeltas.py',
   'PYMODULE'),
  ('pandas.core.strings',
   '/home/vaageesh/.pyenv/versions/venv/lib/python3.9/site-packages/pandas/core/strings/__init__.py',
   'PYMODULE'),
  ('pandas.core.strings.base',
   '/home/vaageesh/.pyenv/versions/venv/lib/python3.9/site-packages/pandas/core/strings/base.py',
   'PYMODULE'),
  ('pandas.core.strings.accessor',
   '/home/vaageesh/.pyenv/versions/venv/lib/python3.9/site-packages/pandas/core/strings/accessor.py',
   'PYMODULE'),
  ('pandas.core.indexers',
   '/home/vaageesh/.pyenv/versions/venv/lib/python3.9/site-packages/pandas/core/indexers.py',
   'PYMODULE'),
  ('pandas.core.accessor',
   '/home/vaageesh/.pyenv/versions/venv/lib/python3.9/site-packages/pandas/core/accessor.py',
   'PYMODULE'),
  ('pandas.core.dtypes.concat',
   '/home/vaageesh/.pyenv/versions/venv/lib/python3.9/site-packages/pandas/core/dtypes/concat.py',
   'PYMODULE'),
  ('pandas.core.dtypes.cast',
   '/home/vaageesh/.pyenv/versions/venv/lib/python3.9/site-packages/pandas/core/dtypes/cast.py',
   'PYMODULE'),
  ('pandas.core.arrays.string_arrow',
   '/home/vaageesh/.pyenv/versions/venv/lib/python3.9/site-packages/pandas/core/arrays/string_arrow.py',
   'PYMODULE'),
  ('pandas.util._decorators',
   '/home/vaageesh/.pyenv/versions/venv/lib/python3.9/site-packages/pandas/util/_decorators.py',
   'PYMODULE'),
  ('pandas.errors',
   '/home/vaageesh/.pyenv/versions/venv/lib/python3.9/site-packages/pandas/errors/__init__.py',
   'PYMODULE'),
  ('pandas.io.formats.printing',
   '/home/vaageesh/.pyenv/versions/venv/lib/python3.9/site-packages/pandas/io/formats/printing.py',
   'PYMODULE'),
  ('pandas.io.common',
   '/home/vaageesh/.pyenv/versions/venv/lib/python3.9/site-packages/pandas/io/common.py',
   'PYMODULE'),
  ('pandas.core.reshape.concat',
   '/home/vaageesh/.pyenv/versions/venv/lib/python3.9/site-packages/pandas/core/reshape/concat.py',
   'PYMODULE'),
  ('pandas.core.indexes.timedeltas',
   '/home/vaageesh/.pyenv/versions/venv/lib/python3.9/site-packages/pandas/core/indexes/timedeltas.py',
   'PYMODULE'),
  ('pandas.core.indexes.datetimes',
   '/home/vaageesh/.pyenv/versions/venv/lib/python3.9/site-packages/pandas/core/indexes/datetimes.py',
   'PYMODULE'),
  ('pandas.core.indexes.api',
   '/home/vaageesh/.pyenv/versions/venv/lib/python3.9/site-packages/pandas/core/indexes/api.py',
   'PYMODULE'),
  ('pandas.core.base',
   '/home/vaageesh/.pyenv/versions/venv/lib/python3.9/site-packages/pandas/core/base.py',
   'PYMODULE'),
  ('pandas.io.formats',
   '/home/vaageesh/.pyenv/versions/venv/lib/python3.9/site-packages/pandas/io/formats/__init__.py',
   'PYMODULE'),
  ('pandas._typing',
   '/home/vaageesh/.pyenv/versions/venv/lib/python3.9/site-packages/pandas/_typing.py',
   'PYMODULE'),
  ('pandas._config.config',
   '/home/vaageesh/.pyenv/versions/venv/lib/python3.9/site-packages/pandas/_config/config.py',
   'PYMODULE'),
  ('pandas.core.ops.common',
   '/home/vaageesh/.pyenv/versions/venv/lib/python3.9/site-packages/pandas/core/ops/common.py',
   'PYMODULE'),
  ('pandas.core.construction',
   '/home/vaageesh/.pyenv/versions/venv/lib/python3.9/site-packages/pandas/core/construction.py',
   'PYMODULE'),
  ('pandas.core.common',
   '/home/vaageesh/.pyenv/versions/venv/lib/python3.9/site-packages/pandas/core/common.py',
   'PYMODULE'),
  ('pandas.core.arrays._ranges',
   '/home/vaageesh/.pyenv/versions/venv/lib/python3.9/site-packages/pandas/core/arrays/_ranges.py',
   'PYMODULE'),
  ('pandas.core.algorithms',
   '/home/vaageesh/.pyenv/versions/venv/lib/python3.9/site-packages/pandas/core/algorithms.py',
   'PYMODULE'),
  ('pandas.core.nanops',
   '/home/vaageesh/.pyenv/versions/venv/lib/python3.9/site-packages/pandas/core/nanops.py',
   'PYMODULE'),
  ('pandas.core.dtypes.missing',
   '/home/vaageesh/.pyenv/versions/venv/lib/python3.9/site-packages/pandas/core/dtypes/missing.py',
   'PYMODULE'),
  ('pandas.core.dtypes.generic',
   '/home/vaageesh/.pyenv/versions/venv/lib/python3.9/site-packages/pandas/core/dtypes/generic.py',
   'PYMODULE'),
  ('pandas.core.dtypes.dtypes',
   '/home/vaageesh/.pyenv/versions/venv/lib/python3.9/site-packages/pandas/core/dtypes/dtypes.py',
   'PYMODULE'),
  ('pytz',
   '/home/vaageesh/.pyenv/versions/venv/lib/python3.9/site-packages/pytz/__init__.py',
   'PYMODULE'),
  ('pytz.tzfile',
   '/home/vaageesh/.pyenv/versions/venv/lib/python3.9/site-packages/pytz/tzfile.py',
   'PYMODULE'),
  ('pytz.tzinfo',
   '/home/vaageesh/.pyenv/versions/venv/lib/python3.9/site-packages/pytz/tzinfo.py',
   'PYMODULE'),
  ('pytz.lazy',
   '/home/vaageesh/.pyenv/versions/venv/lib/python3.9/site-packages/pytz/lazy.py',
   'PYMODULE'),
  ('pytz.exceptions',
   '/home/vaageesh/.pyenv/versions/venv/lib/python3.9/site-packages/pytz/exceptions.py',
   'PYMODULE'),
  ('pandas.core.dtypes.common',
   '/home/vaageesh/.pyenv/versions/venv/lib/python3.9/site-packages/pandas/core/dtypes/common.py',
   'PYMODULE'),
  ('pandas.compat.numpy.function',
   '/home/vaageesh/.pyenv/versions/venv/lib/python3.9/site-packages/pandas/compat/numpy/function.py',
   'PYMODULE'),
  ('pandas.core.arrays.string_',
   '/home/vaageesh/.pyenv/versions/venv/lib/python3.9/site-packages/pandas/core/arrays/string_.py',
   'PYMODULE'),
  ('pandas.core.arrays.period',
   '/home/vaageesh/.pyenv/versions/venv/lib/python3.9/site-packages/pandas/core/arrays/period.py',
   'PYMODULE'),
  ('pandas.core.arrays.numpy_',
   '/home/vaageesh/.pyenv/versions/venv/lib/python3.9/site-packages/pandas/core/arrays/numpy_.py',
   'PYMODULE'),
  ('pandas.core.strings.object_array',
   '/home/vaageesh/.pyenv/versions/venv/lib/python3.9/site-packages/pandas/core/strings/object_array.py',
   'PYMODULE'),
  ('pandas.core.arrays.masked',
   '/home/vaageesh/.pyenv/versions/venv/lib/python3.9/site-packages/pandas/core/arrays/masked.py',
   'PYMODULE'),
  ('pandas.core.arrays.interval',
   '/home/vaageesh/.pyenv/versions/venv/lib/python3.9/site-packages/pandas/core/arrays/interval.py',
   'PYMODULE'),
  ('pandas.core.arrays.integer',
   '/home/vaageesh/.pyenv/versions/venv/lib/python3.9/site-packages/pandas/core/arrays/integer.py',
   'PYMODULE'),
  ('pandas.core.arrays.numeric',
   '/home/vaageesh/.pyenv/versions/venv/lib/python3.9/site-packages/pandas/core/arrays/numeric.py',
   'PYMODULE'),
  ('pandas.core.arrays.floating',
   '/home/vaageesh/.pyenv/versions/venv/lib/python3.9/site-packages/pandas/core/arrays/floating.py',
   'PYMODULE'),
  ('pandas.core.arrays.datetimes',
   '/home/vaageesh/.pyenv/versions/venv/lib/python3.9/site-packages/pandas/core/arrays/datetimes.py',
   'PYMODULE'),
  ('pandas.core.arrays.categorical',
   '/home/vaageesh/.pyenv/versions/venv/lib/python3.9/site-packages/pandas/core/arrays/categorical.py',
   'PYMODULE'),
  ('pandas.core.arrays.boolean',
   '/home/vaageesh/.pyenv/versions/venv/lib/python3.9/site-packages/pandas/core/arrays/boolean.py',
   'PYMODULE'),
  ('pandas.core.arrays.base',
   '/home/vaageesh/.pyenv/versions/venv/lib/python3.9/site-packages/pandas/core/arrays/base.py',
   'PYMODULE'),
  ('pandas.core.arrays.datetimelike',
   '/home/vaageesh/.pyenv/versions/venv/lib/python3.9/site-packages/pandas/core/arrays/datetimelike.py',
   'PYMODULE'),
  ('pandas.core',
   '/home/vaageesh/.pyenv/versions/venv/lib/python3.9/site-packages/pandas/core/__init__.py',
   'PYMODULE'),
  ('pandas.testing',
   '/home/vaageesh/.pyenv/versions/venv/lib/python3.9/site-packages/pandas/testing.py',
   'PYMODULE'),
  ('pandas.util._tester',
   '/home/vaageesh/.pyenv/versions/venv/lib/python3.9/site-packages/pandas/util/_tester.py',
   'PYMODULE'),
  ('pandas.io.json',
   '/home/vaageesh/.pyenv/versions/venv/lib/python3.9/site-packages/pandas/io/json/__init__.py',
   'PYMODULE'),
  ('pandas.io.json._table_schema',
   '/home/vaageesh/.pyenv/versions/venv/lib/python3.9/site-packages/pandas/io/json/_table_schema.py',
   'PYMODULE'),
  ('pandas.io.json._normalize',
   '/home/vaageesh/.pyenv/versions/venv/lib/python3.9/site-packages/pandas/io/json/_normalize.py',
   'PYMODULE'),
  ('pandas.io.json._json',
   '/home/vaageesh/.pyenv/versions/venv/lib/python3.9/site-packages/pandas/io/json/_json.py',
   'PYMODULE'),
  ('pandas.io.api',
   '/home/vaageesh/.pyenv/versions/venv/lib/python3.9/site-packages/pandas/io/api.py',
   'PYMODULE'),
  ('pandas.io.spss',
   '/home/vaageesh/.pyenv/versions/venv/lib/python3.9/site-packages/pandas/io/spss.py',
   'PYMODULE'),
  ('pandas.io.sas',
   '/home/vaageesh/.pyenv/versions/venv/lib/python3.9/site-packages/pandas/io/sas/__init__.py',
   'PYMODULE'),
  ('pandas.io.sas.sasreader',
   '/home/vaageesh/.pyenv/versions/venv/lib/python3.9/site-packages/pandas/io/sas/sasreader.py',
   'PYMODULE'),
  ('pandas.io.sas.sas7bdat',
   '/home/vaageesh/.pyenv/versions/venv/lib/python3.9/site-packages/pandas/io/sas/sas7bdat.py',
   'PYMODULE'),
  ('pandas.io.sas.sas_constants',
   '/home/vaageesh/.pyenv/versions/venv/lib/python3.9/site-packages/pandas/io/sas/sas_constants.py',
   'PYMODULE'),
  ('pandas.io.sas.sas_xport',
   '/home/vaageesh/.pyenv/versions/venv/lib/python3.9/site-packages/pandas/io/sas/sas_xport.py',
   'PYMODULE'),
  ('pandas.io.orc',
   '/home/vaageesh/.pyenv/versions/venv/lib/python3.9/site-packages/pandas/io/orc.py',
   'PYMODULE'),
  ('pandas.io.html',
   '/home/vaageesh/.pyenv/versions/venv/lib/python3.9/site-packages/pandas/io/html.py',
   'PYMODULE'),
  ('pandas.util._print_versions',
   '/home/vaageesh/.pyenv/versions/venv/lib/python3.9/site-packages/pandas/util/_print_versions.py',
   'PYMODULE'),
  ('pandas.api',
   '/home/vaageesh/.pyenv/versions/venv/lib/python3.9/site-packages/pandas/api/__init__.py',
   'PYMODULE'),
  ('pandas.api.indexers',
   '/home/vaageesh/.pyenv/versions/venv/lib/python3.9/site-packages/pandas/api/indexers/__init__.py',
   'PYMODULE'),
  ('pandas.api.extensions',
   '/home/vaageesh/.pyenv/versions/venv/lib/python3.9/site-packages/pandas/api/extensions/__init__.py',
   'PYMODULE'),
  ('pandas.core.reshape.api',
   '/home/vaageesh/.pyenv/versions/venv/lib/python3.9/site-packages/pandas/core/reshape/api.py',
   'PYMODULE'),
  ('pandas.core.computation.api',
   '/home/vaageesh/.pyenv/versions/venv/lib/python3.9/site-packages/pandas/core/computation/api.py',
   'PYMODULE'),
  ('pandas.tseries.offsets',
   '/home/vaageesh/.pyenv/versions/venv/lib/python3.9/site-packages/pandas/tseries/offsets.py',
   'PYMODULE'),
  ('pandas.tseries',
   '/home/vaageesh/.pyenv/versions/venv/lib/python3.9/site-packages/pandas/tseries/__init__.py',
   'PYMODULE'),
  ('pandas.tseries.api',
   '/home/vaageesh/.pyenv/versions/venv/lib/python3.9/site-packages/pandas/tseries/api.py',
   'PYMODULE'),
  ('pandas.core.arrays.sparse',
   '/home/vaageesh/.pyenv/versions/venv/lib/python3.9/site-packages/pandas/core/arrays/sparse/__init__.py',
   'PYMODULE'),
  ('pandas.core.arrays.sparse.accessor',
   '/home/vaageesh/.pyenv/versions/venv/lib/python3.9/site-packages/pandas/core/arrays/sparse/accessor.py',
   'PYMODULE'),
  ('pandas.core.arrays.sparse.scipy_sparse',
   '/home/vaageesh/.pyenv/versions/venv/lib/python3.9/site-packages/pandas/core/arrays/sparse/scipy_sparse.py',
   'PYMODULE'),
  ('pandas.core.api',
   '/home/vaageesh/.pyenv/versions/venv/lib/python3.9/site-packages/pandas/core/api.py',
   'PYMODULE'),
  ('pandas.core.config_init',
   '/home/vaageesh/.pyenv/versions/venv/lib/python3.9/site-packages/pandas/core/config_init.py',
   'PYMODULE'),
  ('pandas._config',
   '/home/vaageesh/.pyenv/versions/venv/lib/python3.9/site-packages/pandas/_config/__init__.py',
   'PYMODULE'),
  ('pandas._config.display',
   '/home/vaageesh/.pyenv/versions/venv/lib/python3.9/site-packages/pandas/_config/display.py',
   'PYMODULE'),
  ('pandas._config.dates',
   '/home/vaageesh/.pyenv/versions/venv/lib/python3.9/site-packages/pandas/_config/dates.py',
   'PYMODULE'),
  ('pandas._libs',
   '/home/vaageesh/.pyenv/versions/venv/lib/python3.9/site-packages/pandas/_libs/__init__.py',
   'PYMODULE'),
  ('pandas.compat.numpy',
   '/home/vaageesh/.pyenv/versions/venv/lib/python3.9/site-packages/pandas/compat/numpy/__init__.py',
   'PYMODULE'),
  ('PyQt5',
   '/home/vaageesh/.pyenv/versions/venv/lib/python3.9/site-packages/PyQt5/__init__.py',
   'PYMODULE')])
